<?xml version="1.0" encoding="utf-8"?>
<COLLADA xmlns="http://www.collada.org/2005/11/COLLADASchema" version="1.4.1">
	<asset>
		<contributor>
			<author/>
			<authoring_tool>FBX COLLADA exporter</authoring_tool>
			<comments/>
		</contributor>
		<created>2016-09-08T07:29:39Z</created>
		<keywords/>
		<modified>2016-09-08T07:29:39Z</modified>
		<revision/>
		<subject/>
		<title/>
		<unit meter="1.000000" name="centimeter"/>
		<up_axis>Y_UP</up_axis>
	</asset>
	<library_geometries>
		<geometry id="Plane001-lib" name="Plane001Mesh">
			<mesh>
				<source id="Plane001-POSITION">
					<float_array id="Plane001-POSITION-array" count="18">
-0.500000 -0.000052 2.000000
0.500000 -0.000052 2.000000
-0.500000 -0.000050 -0.000000
0.500000 -0.000050 -0.000000
-0.500000 -0.000048 -2.000000
0.500000 -0.000048 -2.000000
					</float_array>
					<technique_common>
						<accessor source="#Plane001-POSITION-array" count="6" stride="3">
							<param name="X" type="float"/>
							<param name="Y" type="float"/>
							<param name="Z" type="float"/>
						</accessor>
					</technique_common>
				</source>
				<source id="Plane001-Normal0">
					<float_array id="Plane001-Normal0-array" count="24">
0.000000 1.000000 0.000000
0.000000 1.000000 0.000000
0.000000 1.000000 0.000001
0.000000 1.000000 0.000001
0.000000 1.000000 0.000001
0.000000 1.000000 0.000001
0.000000 1.000000 0.000000
0.000000 1.000000 0.000000
					</float_array>
					<technique_common>
						<accessor source="#Plane001-Normal0-array" count="8" stride="3">
							<param name="X" type="float"/>
							<param name="Y" type="float"/>
							<param name="Z" type="float"/>
						</accessor>
					</technique_common>
				</source>
				<source id="Plane001-UV0">
					<float_array id="Plane001-UV0-array" count="12">
0.000000 0.000000
1.000000 0.000000
0.000000 0.500000
1.000000 0.500000
0.000000 1.000000
1.000000 1.000000
					</float_array>
					<technique_common>
						<accessor source="#Plane001-UV0-array" count="6" stride="2">
							<param name="S" type="float"/>
							<param name="T" type="float"/>
						</accessor>
					</technique_common>
				</source>
				<vertices id="Plane001-VERTEX">
					<input semantic="POSITION" source="#Plane001-POSITION"/>
				</vertices>
				<polylist count="2">
					<input semantic="VERTEX" offset="0" source="#Plane001-VERTEX"/>
					<input semantic="NORMAL" offset="1" source="#Plane001-Normal0"/>
					<input semantic="TEXCOORD" offset="2" set="0" source="#Plane001-UV0"/>
					<vcount>4 4 </vcount><p> 0 0 0 1 1 1 3 2 3 2 3 2 2 4 2 3 5 3 5 6 5 4 7 4</p>
				</polylist>
			</mesh>
		</geometry>
	</library_geometries>
	<library_controllers>
		<controller id="Plane001Controller">
			<skin source="#Plane001-lib">
				<bind_shape_matrix>
		1.000000 0.000000 -0.000000 0.000000 
		0.000000 0.000000 1.000000 2.000000 
		0.000000 -1.000000 0.000000 -0.000050 
		0.000000 0.000000 0.000000 1.000000
				</bind_shape_matrix>
				<source id="Plane001Controller-Joints">
					<Name_array id="Plane001Controller-Joints-array" count="2">
 Bone002 Bone001</Name_array>
					<technique_common>
						<accessor source="#Plane001Controller-Joints-array" count="2">
							<param type="name"/>
						</accessor>
					</technique_common>
				</source>
				<source id="Plane001Controller-Matrices">
					<float_array id="Plane001Controller-Matrices-array" count="32">

1.000000 -0.000000 -0.000000 0.000000 
-0.000000 0.000000 -1.000000 -0.000001 
0.000000 1.000000 0.000000 -2.000000 
0.000000 0.000000 0.000000 1.000000

1.000000 -0.000000 0.000000 -0.000000 -0.000000 0.000000 -1.000000 -0.000000 -0.000000 1.000000 0.000000 -0.000000 0.000000 0.000000 0.000000 1.000000</float_array>
					<technique_common>
						<accessor source="#Plane001Controller-Matrices-array" count="2" stride="16">
							<param type="float4x4"/>
						</accessor>
					</technique_common>
				</source>
				<source id="Plane001Controller-Weights">
					<float_array id="Plane001Controller-Weights-array" count="7">

1.000000 1.000000 1.000000 1.000000 1.000000 1.000000 1.000000</float_array>
					<technique_common>
						<accessor source="#Plane001Controller-Weights-array" count="7">
							<param type="float"/>
						</accessor>
					</technique_common>
				</source>
				<joints>
					<input semantic="JOINT" source="#Plane001Controller-Joints"/>
					<input semantic="INV_BIND_MATRIX" source="#Plane001Controller-Matrices"/>
				</joints>
				<vertex_weights count="6">
					<input semantic="JOINT" offset="0" source="#Plane001Controller-Joints"/>
					<input semantic="WEIGHT" offset="1" source="#Plane001Controller-Weights"/>
					<vcount>1 1 1 1 1 1</vcount>
					<v>0 1 0 2 0 3 0 4 1 5 1 6</v>
				</vertex_weights>
			</skin>
		</controller>
	</library_controllers>
	<library_animations>
		<animation id="Bone001-anim" name="Bone001"/>
		<animation>
			<source id="Bone001-rotateX.ANGLE-input">
				<float_array id="Bone001-rotateX.ANGLE-input-array" count="101">0.000000 0.033333 0.066667 0.100000 0.133333 0.166667 0.200000 0.233333 0.266667 0.300000 0.333333 0.366667 0.400000 0.433333 0.466667 0.500000 0.533333 0.566667 0.600000 0.633333 0.666667 0.700000 0.733333 0.766667 0.800000 0.833333 0.866667 0.900000 0.933333 0.966667 1.000000 1.033333 1.066667 1.100000 1.133333 1.166667 1.200000 1.233333 1.266667 1.300000 1.333333 1.366667 1.400000 1.433333 1.466667 1.500000 1.533333 1.566667 1.600000 1.633333 1.666667 1.700000 1.733333 1.766667 1.800000 1.833333 1.866667 1.900000 1.933333 1.966667 2.000000 2.033333 2.066667 2.100000 2.133333 2.166667 2.200000 2.233333 2.266667 2.300000 2.333333 2.366667 2.400000 2.433333 2.466667 2.500000 2.533333 2.566667 2.600000 2.633333 2.666667 2.700000 2.733333 2.766667 2.800000 2.833333 2.866667 2.900000 2.933333 2.966667 3.000000 3.033333 3.066667 3.100000 3.133333 3.166667 3.200000 3.233333 3.266667 3.300000 3.333333</float_array>
				<technique_common>
					<accessor source="#Bone001-rotateX.ANGLE-input-array" count="101" stride="1">
						<param type="float"/>
					</accessor>
				</technique_common>
			</source>
			<source id="Bone001-rotateX.ANGLE-output">
				<float_array id="Bone001-rotateX.ANGLE-output-array" count="101">0.000007 0.000007 0.000007 0.000007 0.000007 0.000007 0.000007 0.000007 0.000007 0.000007 0.000007 0.000007 0.000007 0.000007 0.000007 0.000007 0.000007 0.000007 0.000007 0.000007 0.000007 0.000007 0.000007 0.000007 0.000007 0.000007 0.000007 0.000007 0.000007 0.000007 0.000007 0.000007 0.000007 0.000007 0.000007 0.000007 0.000007 0.000007 0.000007 0.000007 0.000007 0.000007 0.000007 0.000007 0.000007 0.000007 0.000007 0.000007 0.000007 0.000007 0.000007 0.000007 0.000007 0.000007 0.000007 0.000007 0.000007 0.000007 0.000007 0.000007 0.000007 0.000007 0.000007 0.000007 0.000007 0.000007 0.000007 0.000007 0.000007 0.000007 0.000007 0.000007 0.000007 0.000007 0.000007 0.000007 0.000007 0.000007 0.000007 0.000007 0.000007 0.000007 0.000007 0.000007 0.000007 0.000007 0.000007 0.000007 0.000007 0.000007 0.000007 0.000007 0.000007 0.000007 0.000007 0.000007 0.000007 0.000007 0.000007 0.000007 0.000007</float_array>
				<technique_common>
					<accessor source="#Bone001-rotateX.ANGLE-output-array" count="101" stride="1">
						<param type="float"/>
					</accessor>
				</technique_common>
			</source>
			<source id="Bone001-rotateX.ANGLE-interpolation">
				<Name_array id="Bone001-rotateX.ANGLE-interpolation-array" count="101">BEZIER BEZIER BEZIER BEZIER BEZIER BEZIER BEZIER BEZIER BEZIER BEZIER BEZIER BEZIER BEZIER BEZIER BEZIER BEZIER BEZIER BEZIER BEZIER BEZIER BEZIER BEZIER BEZIER BEZIER BEZIER BEZIER BEZIER BEZIER BEZIER BEZIER BEZIER BEZIER BEZIER BEZIER BEZIER BEZIER BEZIER BEZIER BEZIER BEZIER BEZIER BEZIER BEZIER BEZIER BEZIER BEZIER BEZIER BEZIER BEZIER BEZIER BEZIER BEZIER BEZIER BEZIER BEZIER BEZIER BEZIER BEZIER BEZIER BEZIER BEZIER BEZIER BEZIER BEZIER BEZIER BEZIER BEZIER BEZIER BEZIER BEZIER BEZIER BEZIER BEZIER BEZIER BEZIER BEZIER BEZIER BEZIER BEZIER BEZIER BEZIER BEZIER BEZIER BEZIER BEZIER BEZIER BEZIER BEZIER BEZIER BEZIER BEZIER BEZIER BEZIER BEZIER BEZIER BEZIER BEZIER BEZIER BEZIER BEZIER BEZIER</Name_array>
				<technique_common>
					<accessor source="#Bone001-rotateX.ANGLE-interpolation-array" count="101" stride="1">
						<param type="name"/>
					</accessor>
				</technique_common>
			</source>
			<source id="Bone001-rotateX.ANGLE-intan">
				<float_array id="Bone001-rotateX.ANGLE-intan-array" count="202">0.000000 0.000000 0.022222 0.000007 0.055556 0.000007 0.088889 0.000007 0.122222 0.000007 0.155556 0.000007 0.188889 0.000007 0.222222 0.000007 0.255556 0.000007 0.288889 0.000007 0.322222 0.000007 0.355556 0.000007 0.388889 0.000007 0.422222 0.000007 0.455556 0.000007 0.488889 0.000007 0.522222 0.000007 0.555556 0.000007 0.588889 0.000007 0.622222 0.000007 0.655556 0.000007 0.688889 0.000007 0.722222 0.000007 0.755556 0.000007 0.788889 0.000007 0.822222 0.000007 0.855556 0.000007 0.888889 0.000007 0.922222 0.000007 0.955556 0.000007 0.988889 0.000007 1.022222 0.000007 1.055556 0.000007 1.088889 0.000007 1.122222 0.000007 1.155556 0.000007 1.188889 0.000007 1.222222 0.000007 1.255556 0.000007 1.288889 0.000007 1.322222 0.000007 1.355556 0.000007 1.388889 0.000007 1.422222 0.000007 1.455556 0.000007 1.488889 0.000007 1.522222 0.000007 1.555556 0.000007 1.588889 0.000007 1.622222 0.000007 1.655556 0.000007 1.688889 0.000007 1.722222 0.000007 1.755556 0.000007 1.788889 0.000007 1.822222 0.000007 1.855556 0.000007 1.888889 0.000007 1.922222 0.000007 1.955556 0.000007 1.988889 0.000007 2.022222 0.000007 2.055556 0.000007 2.088889 0.000007 2.122222 0.000007 2.155556 0.000007 2.188889 0.000007 2.222222 0.000007 2.255556 0.000007 2.288889 0.000007 2.322222 0.000007 2.355556 0.000007 2.388889 0.000007 2.422222 0.000007 2.455556 0.000007 2.488889 0.000007 2.522222 0.000007 2.555556 0.000007 2.588889 0.000007 2.622222 0.000007 2.655556 0.000007 2.688889 0.000007 2.722222 0.000007 2.755556 0.000007 2.788889 0.000007 2.822222 0.000007 2.855556 0.000007 2.888889 0.000007 2.922222 0.000007 2.955556 0.000007 2.988889 0.000007 3.022222 0.000007 3.055556 0.000007 3.088889 0.000007 3.122222 0.000007 3.155556 0.000007 3.188889 0.000007 3.222222 0.000007 3.255556 0.000007 3.288889 0.000007 3.322222 0.000007</float_array>
				<technique_common>
					<accessor source="#Bone001-rotateX.ANGLE-intan-array" count="101" stride="2">
						<param type="float"/>
						<param type="float"/>
					</accessor>
				</technique_common>
			</source>
			<source id="Bone001-rotateX.ANGLE-outtan">
				<float_array id="Bone001-rotateX.ANGLE-outtan-array" count="202">0.011111 0.000007 0.044444 0.000007 0.077778 0.000007 0.111111 0.000007 0.144444 0.000007 0.177778 0.000007 0.211111 0.000007 0.244444 0.000007 0.277778 0.000007 0.311111 0.000007 0.344444 0.000007 0.377778 0.000007 0.411111 0.000007 0.444444 0.000007 0.477778 0.000007 0.511111 0.000007 0.544444 0.000007 0.577778 0.000007 0.611111 0.000007 0.644444 0.000007 0.677778 0.000007 0.711111 0.000007 0.744444 0.000007 0.777778 0.000007 0.811111 0.000007 0.844444 0.000007 0.877778 0.000007 0.911111 0.000007 0.944444 0.000007 0.977778 0.000007 1.011111 0.000007 1.044444 0.000007 1.077778 0.000007 1.111111 0.000007 1.144444 0.000007 1.177778 0.000007 1.211111 0.000007 1.244444 0.000007 1.277778 0.000007 1.311111 0.000007 1.344444 0.000007 1.377778 0.000007 1.411111 0.000007 1.444444 0.000007 1.477778 0.000007 1.511111 0.000007 1.544444 0.000007 1.577778 0.000007 1.611111 0.000007 1.644444 0.000007 1.677778 0.000007 1.711111 0.000007 1.744444 0.000007 1.777778 0.000007 1.811111 0.000007 1.844444 0.000007 1.877778 0.000007 1.911111 0.000007 1.944444 0.000007 1.977778 0.000007 2.011111 0.000007 2.044444 0.000007 2.077778 0.000007 2.111111 0.000007 2.144444 0.000007 2.177778 0.000007 2.211111 0.000007 2.244444 0.000007 2.277778 0.000007 2.311111 0.000007 2.344444 0.000007 2.377778 0.000007 2.411111 0.000007 2.444444 0.000007 2.477778 0.000007 2.511111 0.000007 2.544444 0.000007 2.577778 0.000007 2.611111 0.000007 2.644444 0.000007 2.677778 0.000007 2.711111 0.000007 2.744444 0.000007 2.777778 0.000007 2.811111 0.000007 2.844444 0.000007 2.877778 0.000007 2.911111 0.000007 2.944444 0.000007 2.977778 0.000007 3.011111 0.000007 3.044444 0.000007 3.077778 0.000007 3.111111 0.000007 3.144444 0.000007 3.177778 0.000007 3.211111 0.000007 3.244444 0.000007 3.277778 0.000007 3.311111 0.000007 0.000000 0.000000</float_array>
				<technique_common>
					<accessor source="#Bone001-rotateX.ANGLE-outtan-array" count="101" stride="2">
						<param type="float"/>
						<param type="float"/>
					</accessor>
				</technique_common>
			</source>
			<sampler id="Bone001-rotateX.ANGLE">
				<input semantic="INPUT" source="#Bone001-rotateX.ANGLE-input"/>
				<input semantic="OUTPUT" source="#Bone001-rotateX.ANGLE-output"/>
				<input semantic="INTERPOLATION" source="#Bone001-rotateX.ANGLE-interpolation"/>
				<input semantic="IN_TANGENT" source="#Bone001-rotateX.ANGLE-intan"/>
				<input semantic="OUT_TANGENT" source="#Bone001-rotateX.ANGLE-outtan"/>
			</sampler>
			<channel source="#Bone001-rotateX.ANGLE" target="Bone001/rotateX.ANGLE"/>
		</animation>
		<animation>
			<source id="Bone001-rotateY.ANGLE-input">
				<float_array id="Bone001-rotateY.ANGLE-input-array" count="101">0.000000 0.033333 0.066667 0.100000 0.133333 0.166667 0.200000 0.233333 0.266667 0.300000 0.333333 0.366667 0.400000 0.433333 0.466667 0.500000 0.533333 0.566667 0.600000 0.633333 0.666667 0.700000 0.733333 0.766667 0.800000 0.833333 0.866667 0.900000 0.933333 0.966667 1.000000 1.033333 1.066667 1.100000 1.133333 1.166667 1.200000 1.233333 1.266667 1.300000 1.333333 1.366667 1.400000 1.433333 1.466667 1.500000 1.533333 1.566667 1.600000 1.633333 1.666667 1.700000 1.733333 1.766667 1.800000 1.833333 1.866667 1.900000 1.933333 1.966667 2.000000 2.033333 2.066667 2.100000 2.133333 2.166667 2.200000 2.233333 2.266667 2.300000 2.333333 2.366667 2.400000 2.433333 2.466667 2.500000 2.533333 2.566667 2.600000 2.633333 2.666667 2.700000 2.733333 2.766667 2.800000 2.833333 2.866667 2.900000 2.933333 2.966667 3.000000 3.033333 3.066667 3.100000 3.133333 3.166667 3.200000 3.233333 3.266667 3.300000 3.333333</float_array>
				<technique_common>
					<accessor source="#Bone001-rotateY.ANGLE-input-array" count="101" stride="1">
						<param type="float"/>
					</accessor>
				</technique_common>
			</source>
			<source id="Bone001-rotateY.ANGLE-output">
				<float_array id="Bone001-rotateY.ANGLE-output-array" count="101">0.000000 0.000000 0.000000 0.000000 0.000000 0.000000 0.000000 0.000000 0.000000 0.000000 0.000000 0.000000 0.000000 0.000000 0.000000 0.000000 0.000000 0.000000 0.000000 0.000000 0.000000 0.000000 0.000000 0.000000 0.000000 0.000000 0.000000 0.000000 0.000000 0.000000 0.000000 0.000000 0.000000 0.000000 0.000000 0.000000 0.000000 0.000000 0.000000 0.000000 0.000000 0.000000 0.000000 0.000000 0.000000 0.000000 0.000000 0.000000 0.000000 0.000000 0.000000 0.000000 0.000000 0.000000 0.000000 0.000000 0.000000 0.000000 0.000000 0.000000 0.000000 0.000000 0.000000 0.000000 0.000000 0.000000 0.000000 0.000000 0.000000 0.000000 0.000000 0.000000 0.000000 0.000000 0.000000 0.000000 0.000000 0.000000 0.000000 0.000000 0.000000 0.000000 0.000000 0.000000 0.000000 0.000000 0.000000 0.000000 0.000000 0.000000 0.000000 0.000000 0.000000 0.000000 0.000000 0.000000 0.000000 0.000000 0.000000 0.000000 0.000000</float_array>
				<technique_common>
					<accessor source="#Bone001-rotateY.ANGLE-output-array" count="101" stride="1">
						<param type="float"/>
					</accessor>
				</technique_common>
			</source>
			<source id="Bone001-rotateY.ANGLE-interpolation">
				<Name_array id="Bone001-rotateY.ANGLE-interpolation-array" count="101">BEZIER BEZIER BEZIER BEZIER BEZIER BEZIER BEZIER BEZIER BEZIER BEZIER BEZIER BEZIER BEZIER BEZIER BEZIER BEZIER BEZIER BEZIER BEZIER BEZIER BEZIER BEZIER BEZIER BEZIER BEZIER BEZIER BEZIER BEZIER BEZIER BEZIER BEZIER BEZIER BEZIER BEZIER BEZIER BEZIER BEZIER BEZIER BEZIER BEZIER BEZIER BEZIER BEZIER BEZIER BEZIER BEZIER BEZIER BEZIER BEZIER BEZIER BEZIER BEZIER BEZIER BEZIER BEZIER BEZIER BEZIER BEZIER BEZIER BEZIER BEZIER BEZIER BEZIER BEZIER BEZIER BEZIER BEZIER BEZIER BEZIER BEZIER BEZIER BEZIER BEZIER BEZIER BEZIER BEZIER BEZIER BEZIER BEZIER BEZIER BEZIER BEZIER BEZIER BEZIER BEZIER BEZIER BEZIER BEZIER BEZIER BEZIER BEZIER BEZIER BEZIER BEZIER BEZIER BEZIER BEZIER BEZIER BEZIER BEZIER BEZIER</Name_array>
				<technique_common>
					<accessor source="#Bone001-rotateY.ANGLE-interpolation-array" count="101" stride="1">
						<param type="name"/>
					</accessor>
				</technique_common>
			</source>
			<source id="Bone001-rotateY.ANGLE-intan">
				<float_array id="Bone001-rotateY.ANGLE-intan-array" count="202">0.000000 0.000000 0.022222 0.000000 0.055556 0.000000 0.088889 0.000000 0.122222 0.000000 0.155556 0.000000 0.188889 0.000000 0.222222 0.000000 0.255556 0.000000 0.288889 0.000000 0.322222 0.000000 0.355556 0.000000 0.388889 0.000000 0.422222 0.000000 0.455556 0.000000 0.488889 0.000000 0.522222 0.000000 0.555556 0.000000 0.588889 0.000000 0.622222 0.000000 0.655556 0.000000 0.688889 0.000000 0.722222 0.000000 0.755556 0.000000 0.788889 0.000000 0.822222 0.000000 0.855556 0.000000 0.888889 0.000000 0.922222 0.000000 0.955556 0.000000 0.988889 0.000000 1.022222 0.000000 1.055556 0.000000 1.088889 0.000000 1.122222 0.000000 1.155556 0.000000 1.188889 0.000000 1.222222 0.000000 1.255556 0.000000 1.288889 0.000000 1.322222 0.000000 1.355556 0.000000 1.388889 0.000000 1.422222 0.000000 1.455556 0.000000 1.488889 0.000000 1.522222 0.000000 1.555556 0.000000 1.588889 0.000000 1.622222 0.000000 1.655556 0.000000 1.688889 0.000000 1.722222 0.000000 1.755556 0.000000 1.788889 0.000000 1.822222 0.000000 1.855556 0.000000 1.888889 0.000000 1.922222 0.000000 1.955556 0.000000 1.988889 0.000000 2.022222 0.000000 2.055556 0.000000 2.088889 0.000000 2.122222 0.000000 2.155556 0.000000 2.188889 0.000000 2.222222 0.000000 2.255556 0.000000 2.288889 0.000000 2.322222 0.000000 2.355556 0.000000 2.388889 0.000000 2.422222 0.000000 2.455556 0.000000 2.488889 0.000000 2.522222 0.000000 2.555556 0.000000 2.588889 0.000000 2.622222 0.000000 2.655556 0.000000 2.688889 0.000000 2.722222 0.000000 2.755556 0.000000 2.788889 0.000000 2.822222 0.000000 2.855556 0.000000 2.888889 0.000000 2.922222 0.000000 2.955556 0.000000 2.988889 0.000000 3.022222 0.000000 3.055556 0.000000 3.088889 0.000000 3.122222 0.000000 3.155556 0.000000 3.188889 0.000000 3.222222 0.000000 3.255556 0.000000 3.288889 0.000000 3.322222 0.000000</float_array>
				<technique_common>
					<accessor source="#Bone001-rotateY.ANGLE-intan-array" count="101" stride="2">
						<param type="float"/>
						<param type="float"/>
					</accessor>
				</technique_common>
			</source>
			<source id="Bone001-rotateY.ANGLE-outtan">
				<float_array id="Bone001-rotateY.ANGLE-outtan-array" count="202">0.011111 0.000000 0.044444 0.000000 0.077778 0.000000 0.111111 0.000000 0.144444 0.000000 0.177778 0.000000 0.211111 0.000000 0.244444 0.000000 0.277778 0.000000 0.311111 0.000000 0.344444 0.000000 0.377778 0.000000 0.411111 0.000000 0.444444 0.000000 0.477778 0.000000 0.511111 0.000000 0.544444 0.000000 0.577778 0.000000 0.611111 0.000000 0.644444 0.000000 0.677778 0.000000 0.711111 0.000000 0.744444 0.000000 0.777778 0.000000 0.811111 0.000000 0.844444 0.000000 0.877778 0.000000 0.911111 0.000000 0.944444 0.000000 0.977778 0.000000 1.011111 0.000000 1.044444 0.000000 1.077778 0.000000 1.111111 0.000000 1.144444 0.000000 1.177778 0.000000 1.211111 0.000000 1.244444 0.000000 1.277778 0.000000 1.311111 0.000000 1.344444 0.000000 1.377778 0.000000 1.411111 0.000000 1.444444 0.000000 1.477778 0.000000 1.511111 0.000000 1.544444 0.000000 1.577778 0.000000 1.611111 0.000000 1.644444 0.000000 1.677778 0.000000 1.711111 0.000000 1.744444 0.000000 1.777778 0.000000 1.811111 0.000000 1.844444 0.000000 1.877778 0.000000 1.911111 0.000000 1.944444 0.000000 1.977778 0.000000 2.011111 0.000000 2.044444 0.000000 2.077778 0.000000 2.111111 0.000000 2.144444 0.000000 2.177778 0.000000 2.211111 0.000000 2.244444 0.000000 2.277778 0.000000 2.311111 0.000000 2.344444 0.000000 2.377778 0.000000 2.411111 0.000000 2.444444 0.000000 2.477778 0.000000 2.511111 0.000000 2.544444 0.000000 2.577778 0.000000 2.611111 0.000000 2.644444 0.000000 2.677778 0.000000 2.711111 0.000000 2.744444 0.000000 2.777778 0.000000 2.811111 0.000000 2.844444 0.000000 2.877778 0.000000 2.911111 0.000000 2.944444 0.000000 2.977778 0.000000 3.011111 0.000000 3.044444 0.000000 3.077778 0.000000 3.111111 0.000000 3.144444 0.000000 3.177778 0.000000 3.211111 0.000000 3.244444 0.000000 3.277778 0.000000 3.311111 0.000000 0.000000 0.000000</float_array>
				<technique_common>
					<accessor source="#Bone001-rotateY.ANGLE-outtan-array" count="101" stride="2">
						<param type="float"/>
						<param type="float"/>
					</accessor>
				</technique_common>
			</source>
			<sampler id="Bone001-rotateY.ANGLE">
				<input semantic="INPUT" source="#Bone001-rotateY.ANGLE-input"/>
				<input semantic="OUTPUT" source="#Bone001-rotateY.ANGLE-output"/>
				<input semantic="INTERPOLATION" source="#Bone001-rotateY.ANGLE-interpolation"/>
				<input semantic="IN_TANGENT" source="#Bone001-rotateY.ANGLE-intan"/>
				<input semantic="OUT_TANGENT" source="#Bone001-rotateY.ANGLE-outtan"/>
			</sampler>
			<channel source="#Bone001-rotateY.ANGLE" target="Bone001/rotateY.ANGLE"/>
		</animation>
		<animation>
			<source id="Bone001-rotateZ.ANGLE-input">
				<float_array id="Bone001-rotateZ.ANGLE-input-array" count="101">0.000000 0.033333 0.066667 0.100000 0.133333 0.166667 0.200000 0.233333 0.266667 0.300000 0.333333 0.366667 0.400000 0.433333 0.466667 0.500000 0.533333 0.566667 0.600000 0.633333 0.666667 0.700000 0.733333 0.766667 0.800000 0.833333 0.866667 0.900000 0.933333 0.966667 1.000000 1.033333 1.066667 1.100000 1.133333 1.166667 1.200000 1.233333 1.266667 1.300000 1.333333 1.366667 1.400000 1.433333 1.466667 1.500000 1.533333 1.566667 1.600000 1.633333 1.666667 1.700000 1.733333 1.766667 1.800000 1.833333 1.866667 1.900000 1.933333 1.966667 2.000000 2.033333 2.066667 2.100000 2.133333 2.166667 2.200000 2.233333 2.266667 2.300000 2.333333 2.366667 2.400000 2.433333 2.466667 2.500000 2.533333 2.566667 2.600000 2.633333 2.666667 2.700000 2.733333 2.766667 2.800000 2.833333 2.866667 2.900000 2.933333 2.966667 3.000000 3.033333 3.066667 3.100000 3.133333 3.166667 3.200000 3.233333 3.266667 3.300000 3.333333</float_array>
				<technique_common>
					<accessor source="#Bone001-rotateZ.ANGLE-input-array" count="101" stride="1">
						<param type="float"/>
					</accessor>
				</technique_common>
			</source>
			<source id="Bone001-rotateZ.ANGLE-output">
				<float_array id="Bone001-rotateZ.ANGLE-output-array" count="101">0.000000 0.000000 0.000000 0.000000 0.000000 0.000000 0.000000 0.000000 0.000000 0.000000 0.000000 0.000000 0.000000 0.000000 0.000000 0.000000 0.000000 0.000000 0.000000 0.000000 0.000000 0.000000 0.000000 0.000000 0.000000 0.000000 0.000000 0.000000 0.000000 0.000000 0.000000 0.000000 0.000000 0.000000 0.000000 0.000000 0.000000 0.000000 0.000000 0.000000 0.000000 0.000000 0.000000 0.000000 0.000000 0.000000 0.000000 0.000000 0.000000 0.000000 0.000000 0.000000 0.000000 0.000000 0.000000 0.000000 0.000000 0.000000 0.000000 0.000000 0.000000 0.000000 0.000000 0.000000 0.000000 0.000000 0.000000 0.000000 0.000000 0.000000 0.000000 0.000000 0.000000 0.000000 0.000000 0.000000 0.000000 0.000000 0.000000 0.000000 0.000000 0.000000 0.000000 0.000000 0.000000 0.000000 0.000000 0.000000 0.000000 0.000000 0.000000 0.000000 0.000000 0.000000 0.000000 0.000000 0.000000 0.000000 0.000000 0.000000 0.000000</float_array>
				<technique_common>
					<accessor source="#Bone001-rotateZ.ANGLE-output-array" count="101" stride="1">
						<param type="float"/>
					</accessor>
				</technique_common>
			</source>
			<source id="Bone001-rotateZ.ANGLE-interpolation">
				<Name_array id="Bone001-rotateZ.ANGLE-interpolation-array" count="101">BEZIER BEZIER BEZIER BEZIER BEZIER BEZIER BEZIER BEZIER BEZIER BEZIER BEZIER BEZIER BEZIER BEZIER BEZIER BEZIER BEZIER BEZIER BEZIER BEZIER BEZIER BEZIER BEZIER BEZIER BEZIER BEZIER BEZIER BEZIER BEZIER BEZIER BEZIER BEZIER BEZIER BEZIER BEZIER BEZIER BEZIER BEZIER BEZIER BEZIER BEZIER BEZIER BEZIER BEZIER BEZIER BEZIER BEZIER BEZIER BEZIER BEZIER BEZIER BEZIER BEZIER BEZIER BEZIER BEZIER BEZIER BEZIER BEZIER BEZIER BEZIER BEZIER BEZIER BEZIER BEZIER BEZIER BEZIER BEZIER BEZIER BEZIER BEZIER BEZIER BEZIER BEZIER BEZIER BEZIER BEZIER BEZIER BEZIER BEZIER BEZIER BEZIER BEZIER BEZIER BEZIER BEZIER BEZIER BEZIER BEZIER BEZIER BEZIER BEZIER BEZIER BEZIER BEZIER BEZIER BEZIER BEZIER BEZIER BEZIER BEZIER</Name_array>
				<technique_common>
					<accessor source="#Bone001-rotateZ.ANGLE-interpolation-array" count="101" stride="1">
						<param type="name"/>
					</accessor>
				</technique_common>
			</source>
			<source id="Bone001-rotateZ.ANGLE-intan">
				<float_array id="Bone001-rotateZ.ANGLE-intan-array" count="202">0.000000 0.000000 0.022222 0.000000 0.055556 0.000000 0.088889 0.000000 0.122222 0.000000 0.155556 0.000000 0.188889 0.000000 0.222222 0.000000 0.255556 0.000000 0.288889 0.000000 0.322222 0.000000 0.355556 0.000000 0.388889 0.000000 0.422222 0.000000 0.455556 0.000000 0.488889 0.000000 0.522222 0.000000 0.555556 0.000000 0.588889 0.000000 0.622222 0.000000 0.655556 0.000000 0.688889 0.000000 0.722222 0.000000 0.755556 0.000000 0.788889 0.000000 0.822222 0.000000 0.855556 0.000000 0.888889 0.000000 0.922222 0.000000 0.955556 0.000000 0.988889 0.000000 1.022222 0.000000 1.055556 0.000000 1.088889 0.000000 1.122222 0.000000 1.155556 0.000000 1.188889 0.000000 1.222222 0.000000 1.255556 0.000000 1.288889 0.000000 1.322222 0.000000 1.355556 0.000000 1.388889 0.000000 1.422222 0.000000 1.455556 0.000000 1.488889 0.000000 1.522222 0.000000 1.555556 0.000000 1.588889 0.000000 1.622222 0.000000 1.655556 0.000000 1.688889 0.000000 1.722222 0.000000 1.755556 0.000000 1.788889 0.000000 1.822222 0.000000 1.855556 0.000000 1.888889 0.000000 1.922222 0.000000 1.955556 0.000000 1.988889 0.000000 2.022222 0.000000 2.055556 0.000000 2.088889 0.000000 2.122222 0.000000 2.155556 0.000000 2.188889 0.000000 2.222222 0.000000 2.255556 0.000000 2.288889 0.000000 2.322222 0.000000 2.355556 0.000000 2.388889 0.000000 2.422222 0.000000 2.455556 0.000000 2.488889 0.000000 2.522222 0.000000 2.555556 0.000000 2.588889 0.000000 2.622222 0.000000 2.655556 0.000000 2.688889 0.000000 2.722222 0.000000 2.755556 0.000000 2.788889 0.000000 2.822222 0.000000 2.855556 0.000000 2.888889 0.000000 2.922222 0.000000 2.955556 0.000000 2.988889 0.000000 3.022222 0.000000 3.055556 0.000000 3.088889 0.000000 3.122222 0.000000 3.155556 0.000000 3.188889 0.000000 3.222222 0.000000 3.255556 0.000000 3.288889 0.000000 3.322222 0.000000</float_array>
				<technique_common>
					<accessor source="#Bone001-rotateZ.ANGLE-intan-array" count="101" stride="2">
						<param type="float"/>
						<param type="float"/>
					</accessor>
				</technique_common>
			</source>
			<source id="Bone001-rotateZ.ANGLE-outtan">
				<float_array id="Bone001-rotateZ.ANGLE-outtan-array" count="202">0.011111 0.000000 0.044444 0.000000 0.077778 0.000000 0.111111 0.000000 0.144444 0.000000 0.177778 0.000000 0.211111 0.000000 0.244444 0.000000 0.277778 0.000000 0.311111 0.000000 0.344444 0.000000 0.377778 0.000000 0.411111 0.000000 0.444444 0.000000 0.477778 0.000000 0.511111 0.000000 0.544444 0.000000 0.577778 0.000000 0.611111 0.000000 0.644444 0.000000 0.677778 0.000000 0.711111 0.000000 0.744444 0.000000 0.777778 0.000000 0.811111 0.000000 0.844444 0.000000 0.877778 0.000000 0.911111 0.000000 0.944444 0.000000 0.977778 0.000000 1.011111 0.000000 1.044444 0.000000 1.077778 0.000000 1.111111 0.000000 1.144444 0.000000 1.177778 0.000000 1.211111 0.000000 1.244444 0.000000 1.277778 0.000000 1.311111 0.000000 1.344444 0.000000 1.377778 0.000000 1.411111 0.000000 1.444444 0.000000 1.477778 0.000000 1.511111 0.000000 1.544444 0.000000 1.577778 0.000000 1.611111 0.000000 1.644444 0.000000 1.677778 0.000000 1.711111 0.000000 1.744444 0.000000 1.777778 0.000000 1.811111 0.000000 1.844444 0.000000 1.877778 0.000000 1.911111 0.000000 1.944444 0.000000 1.977778 0.000000 2.011111 0.000000 2.044444 0.000000 2.077778 0.000000 2.111111 0.000000 2.144444 0.000000 2.177778 0.000000 2.211111 0.000000 2.244444 0.000000 2.277778 0.000000 2.311111 0.000000 2.344444 0.000000 2.377778 0.000000 2.411111 0.000000 2.444444 0.000000 2.477778 0.000000 2.511111 0.000000 2.544444 0.000000 2.577778 0.000000 2.611111 0.000000 2.644444 0.000000 2.677778 0.000000 2.711111 0.000000 2.744444 0.000000 2.777778 0.000000 2.811111 0.000000 2.844444 0.000000 2.877778 0.000000 2.911111 0.000000 2.944444 0.000000 2.977778 0.000000 3.011111 0.000000 3.044444 0.000000 3.077778 0.000000 3.111111 0.000000 3.144444 0.000000 3.177778 0.000000 3.211111 0.000000 3.244444 0.000000 3.277778 0.000000 3.311111 0.000000 0.000000 0.000000</float_array>
				<technique_common>
					<accessor source="#Bone001-rotateZ.ANGLE-outtan-array" count="101" stride="2">
						<param type="float"/>
						<param type="float"/>
					</accessor>
				</technique_common>
			</source>
			<sampler id="Bone001-rotateZ.ANGLE">
				<input semantic="INPUT" source="#Bone001-rotateZ.ANGLE-input"/>
				<input semantic="OUTPUT" source="#Bone001-rotateZ.ANGLE-output"/>
				<input semantic="INTERPOLATION" source="#Bone001-rotateZ.ANGLE-interpolation"/>
				<input semantic="IN_TANGENT" source="#Bone001-rotateZ.ANGLE-intan"/>
				<input semantic="OUT_TANGENT" source="#Bone001-rotateZ.ANGLE-outtan"/>
			</sampler>
			<channel source="#Bone001-rotateZ.ANGLE" target="Bone001/rotateZ.ANGLE"/>
		</animation>
		<animation id="Bone002-anim" name="Bone002"/>
		<animation>
			<source id="Bone002-rotateX.ANGLE-input">
				<float_array id="Bone002-rotateX.ANGLE-input-array" count="101">0.000000 0.033333 0.066667 0.100000 0.133333 0.166667 0.200000 0.233333 0.266667 0.300000 0.333333 0.366667 0.400000 0.433333 0.466667 0.500000 0.533333 0.566667 0.600000 0.633333 0.666667 0.700000 0.733333 0.766667 0.800000 0.833333 0.866667 0.900000 0.933333 0.966667 1.000000 1.033333 1.066667 1.100000 1.133333 1.166667 1.200000 1.233333 1.266667 1.300000 1.333333 1.366667 1.400000 1.433333 1.466667 1.500000 1.533333 1.566667 1.600000 1.633333 1.666667 1.700000 1.733333 1.766667 1.800000 1.833333 1.866667 1.900000 1.933333 1.966667 2.000000 2.033333 2.066667 2.100000 2.133333 2.166667 2.200000 2.233333 2.266667 2.300000 2.333333 2.366667 2.400000 2.433333 2.466667 2.500000 2.533333 2.566667 2.600000 2.633333 2.666667 2.700000 2.733333 2.766667 2.800000 2.833333 2.866667 2.900000 2.933333 2.966667 3.000000 3.033333 3.066667 3.100000 3.133333 3.166667 3.200000 3.233333 3.266667 3.300000 3.333333</float_array>
				<technique_common>
					<accessor source="#Bone002-rotateX.ANGLE-input-array" count="101" stride="1">
						<param type="float"/>
					</accessor>
				</technique_common>
			</source>
			<source id="Bone002-rotateX.ANGLE-output">
				<float_array id="Bone002-rotateX.ANGLE-output-array" count="101">0.000019 0.000019 0.000019 0.000019 0.000019 0.000019 0.000019 0.000019 0.000019 0.000019 0.000019 0.000019 0.000019 0.000019 0.000019 0.000019 0.000019 0.000019 0.000019 0.000019 0.000019 0.000019 0.000019 0.000019 0.000019 0.000019 0.000019 0.000019 0.000019 0.000019 0.000019 0.000019 0.000019 0.000019 0.000019 0.000019 0.000019 0.000019 0.000019 0.000019 0.000019 0.000019 0.000019 0.000019 0.000019 0.000019 0.000019 0.000019 0.000019 0.000019 0.000019 0.000019 0.000019 0.000019 0.000019 0.000019 0.000019 0.000019 0.000019 0.000019 0.000019 0.000019 0.000019 0.000019 0.000019 0.000019 0.000019 0.000019 0.000019 0.000019 0.000019 0.000019 0.000019 0.000019 0.000019 0.000019 0.000019 0.000019 0.000019 0.000019 0.000019 0.000019 0.000019 0.000019 0.000019 0.000019 0.000019 0.000019 0.000019 0.000019 0.000019 0.000019 0.000019 0.000019 0.000019 0.000019 0.000019 0.000019 0.000019 0.000019 0.000019</float_array>
				<technique_common>
					<accessor source="#Bone002-rotateX.ANGLE-output-array" count="101" stride="1">
						<param type="float"/>
					</accessor>
				</technique_common>
			</source>
			<source id="Bone002-rotateX.ANGLE-interpolation">
				<Name_array id="Bone002-rotateX.ANGLE-interpolation-array" count="101">BEZIER BEZIER BEZIER BEZIER BEZIER BEZIER BEZIER BEZIER BEZIER BEZIER BEZIER BEZIER BEZIER BEZIER BEZIER BEZIER BEZIER BEZIER BEZIER BEZIER BEZIER BEZIER BEZIER BEZIER BEZIER BEZIER BEZIER BEZIER BEZIER BEZIER BEZIER BEZIER BEZIER BEZIER BEZIER BEZIER BEZIER BEZIER BEZIER BEZIER BEZIER BEZIER BEZIER BEZIER BEZIER BEZIER BEZIER BEZIER BEZIER BEZIER BEZIER BEZIER BEZIER BEZIER BEZIER BEZIER BEZIER BEZIER BEZIER BEZIER BEZIER BEZIER BEZIER BEZIER BEZIER BEZIER BEZIER BEZIER BEZIER BEZIER BEZIER BEZIER BEZIER BEZIER BEZIER BEZIER BEZIER BEZIER BEZIER BEZIER BEZIER BEZIER BEZIER BEZIER BEZIER BEZIER BEZIER BEZIER BEZIER BEZIER BEZIER BEZIER BEZIER BEZIER BEZIER BEZIER BEZIER BEZIER BEZIER BEZIER BEZIER</Name_array>
				<technique_common>
					<accessor source="#Bone002-rotateX.ANGLE-interpolation-array" count="101" stride="1">
						<param type="name"/>
					</accessor>
				</technique_common>
			</source>
			<source id="Bone002-rotateX.ANGLE-intan">
				<float_array id="Bone002-rotateX.ANGLE-intan-array" count="202">0.000000 0.000000 0.022222 0.000019 0.055556 0.000019 0.088889 0.000019 0.122222 0.000019 0.155556 0.000019 0.188889 0.000019 0.222222 0.000019 0.255556 0.000019 0.288889 0.000019 0.322222 0.000019 0.355556 0.000019 0.388889 0.000019 0.422222 0.000019 0.455556 0.000019 0.488889 0.000019 0.522222 0.000019 0.555556 0.000019 0.588889 0.000019 0.622222 0.000019 0.655556 0.000019 0.688889 0.000019 0.722222 0.000019 0.755556 0.000019 0.788889 0.000019 0.822222 0.000019 0.855556 0.000019 0.888889 0.000019 0.922222 0.000019 0.955556 0.000019 0.988889 0.000019 1.022222 0.000019 1.055556 0.000019 1.088889 0.000019 1.122222 0.000019 1.155556 0.000019 1.188889 0.000019 1.222222 0.000019 1.255556 0.000019 1.288889 0.000019 1.322222 0.000019 1.355556 0.000019 1.388889 0.000019 1.422222 0.000019 1.455556 0.000019 1.488889 0.000019 1.522222 0.000019 1.555556 0.000019 1.588889 0.000019 1.622222 0.000019 1.655556 0.000019 1.688889 0.000019 1.722222 0.000019 1.755556 0.000019 1.788889 0.000019 1.822222 0.000019 1.855556 0.000019 1.888889 0.000019 1.922222 0.000019 1.955556 0.000019 1.988889 0.000019 2.022222 0.000019 2.055556 0.000019 2.088889 0.000019 2.122222 0.000019 2.155556 0.000019 2.188889 0.000019 2.222222 0.000019 2.255556 0.000019 2.288889 0.000019 2.322222 0.000019 2.355556 0.000019 2.388889 0.000019 2.422222 0.000019 2.455556 0.000019 2.488889 0.000019 2.522222 0.000019 2.555556 0.000019 2.588889 0.000019 2.622222 0.000019 2.655556 0.000019 2.688889 0.000019 2.722222 0.000019 2.755556 0.000019 2.788889 0.000019 2.822222 0.000019 2.855556 0.000019 2.888889 0.000019 2.922222 0.000019 2.955556 0.000019 2.988889 0.000019 3.022222 0.000019 3.055556 0.000019 3.088889 0.000019 3.122222 0.000019 3.155556 0.000019 3.188889 0.000019 3.222222 0.000019 3.255556 0.000019 3.288889 0.000019 3.322222 0.000019</float_array>
				<technique_common>
					<accessor source="#Bone002-rotateX.ANGLE-intan-array" count="101" stride="2">
						<param type="float"/>
						<param type="float"/>
					</accessor>
				</technique_common>
			</source>
			<source id="Bone002-rotateX.ANGLE-outtan">
				<float_array id="Bone002-rotateX.ANGLE-outtan-array" count="202">0.011111 0.000019 0.044444 0.000019 0.077778 0.000019 0.111111 0.000019 0.144444 0.000019 0.177778 0.000019 0.211111 0.000019 0.244444 0.000019 0.277778 0.000019 0.311111 0.000019 0.344444 0.000019 0.377778 0.000019 0.411111 0.000019 0.444444 0.000019 0.477778 0.000019 0.511111 0.000019 0.544444 0.000019 0.577778 0.000019 0.611111 0.000019 0.644444 0.000019 0.677778 0.000019 0.711111 0.000019 0.744444 0.000019 0.777778 0.000019 0.811111 0.000019 0.844444 0.000019 0.877778 0.000019 0.911111 0.000019 0.944444 0.000019 0.977778 0.000019 1.011111 0.000019 1.044444 0.000019 1.077778 0.000019 1.111111 0.000019 1.144444 0.000019 1.177778 0.000019 1.211111 0.000019 1.244444 0.000019 1.277778 0.000019 1.311111 0.000019 1.344444 0.000019 1.377778 0.000019 1.411111 0.000019 1.444444 0.000019 1.477778 0.000019 1.511111 0.000019 1.544444 0.000019 1.577778 0.000019 1.611111 0.000019 1.644444 0.000019 1.677778 0.000019 1.711111 0.000019 1.744444 0.000019 1.777778 0.000019 1.811111 0.000019 1.844444 0.000019 1.877778 0.000019 1.911111 0.000019 1.944444 0.000019 1.977778 0.000019 2.011111 0.000019 2.044444 0.000019 2.077778 0.000019 2.111111 0.000019 2.144444 0.000019 2.177778 0.000019 2.211111 0.000019 2.244444 0.000019 2.277778 0.000019 2.311111 0.000019 2.344444 0.000019 2.377778 0.000019 2.411111 0.000019 2.444444 0.000019 2.477778 0.000019 2.511111 0.000019 2.544444 0.000019 2.577778 0.000019 2.611111 0.000019 2.644444 0.000019 2.677778 0.000019 2.711111 0.000019 2.744444 0.000019 2.777778 0.000019 2.811111 0.000019 2.844444 0.000019 2.877778 0.000019 2.911111 0.000019 2.944444 0.000019 2.977778 0.000019 3.011111 0.000019 3.044444 0.000019 3.077778 0.000019 3.111111 0.000019 3.144444 0.000019 3.177778 0.000019 3.211111 0.000019 3.244444 0.000019 3.277778 0.000019 3.311111 0.000019 0.000000 0.000000</float_array>
				<technique_common>
					<accessor source="#Bone002-rotateX.ANGLE-outtan-array" count="101" stride="2">
						<param type="float"/>
						<param type="float"/>
					</accessor>
				</technique_common>
			</source>
			<sampler id="Bone002-rotateX.ANGLE">
				<input semantic="INPUT" source="#Bone002-rotateX.ANGLE-input"/>
				<input semantic="OUTPUT" source="#Bone002-rotateX.ANGLE-output"/>
				<input semantic="INTERPOLATION" source="#Bone002-rotateX.ANGLE-interpolation"/>
				<input semantic="IN_TANGENT" source="#Bone002-rotateX.ANGLE-intan"/>
				<input semantic="OUT_TANGENT" source="#Bone002-rotateX.ANGLE-outtan"/>
			</sampler>
			<channel source="#Bone002-rotateX.ANGLE" target="Bone002/rotateX.ANGLE"/>
		</animation>
		<animation>
			<source id="Bone002-rotateY.ANGLE-input">
				<float_array id="Bone002-rotateY.ANGLE-input-array" count="101">0.000000 0.033333 0.066667 0.100000 0.133333 0.166667 0.200000 0.233333 0.266667 0.300000 0.333333 0.366667 0.400000 0.433333 0.466667 0.500000 0.533333 0.566667 0.600000 0.633333 0.666667 0.700000 0.733333 0.766667 0.800000 0.833333 0.866667 0.900000 0.933333 0.966667 1.000000 1.033333 1.066667 1.100000 1.133333 1.166667 1.200000 1.233333 1.266667 1.300000 1.333333 1.366667 1.400000 1.433333 1.466667 1.500000 1.533333 1.566667 1.600000 1.633333 1.666667 1.700000 1.733333 1.766667 1.800000 1.833333 1.866667 1.900000 1.933333 1.966667 2.000000 2.033333 2.066667 2.100000 2.133333 2.166667 2.200000 2.233333 2.266667 2.300000 2.333333 2.366667 2.400000 2.433333 2.466667 2.500000 2.533333 2.566667 2.600000 2.633333 2.666667 2.700000 2.733333 2.766667 2.800000 2.833333 2.866667 2.900000 2.933333 2.966667 3.000000 3.033333 3.066667 3.100000 3.133333 3.166667 3.200000 3.233333 3.266667 3.300000 3.333333</float_array>
				<technique_common>
					<accessor source="#Bone002-rotateY.ANGLE-input-array" count="101" stride="1">
						<param type="float"/>
					</accessor>
				</technique_common>
			</source>
			<source id="Bone002-rotateY.ANGLE-output">
				<float_array id="Bone002-rotateY.ANGLE-output-array" count="101">0.000005 0.000005 0.000005 0.000005 0.000005 0.000005 0.000005 0.000005 0.000005 0.000005 0.000005 0.000005 0.000005 0.000005 0.000005 0.000005 0.000005 0.000005 0.000005 0.000005 0.000005 0.000005 0.000005 0.000005 0.000005 0.000005 0.000005 0.000005 0.000005 0.000005 0.000005 0.000005 0.000005 0.000005 0.000005 0.000005 0.000005 0.000005 0.000005 0.000005 0.000005 0.000005 0.000005 0.000005 0.000005 0.000005 0.000005 0.000005 0.000005 0.000005 0.000005 0.000005 0.000005 0.000005 0.000005 0.000005 0.000005 0.000005 0.000005 0.000005 0.000005 0.000005 0.000005 0.000005 0.000005 0.000005 0.000005 0.000005 0.000005 0.000005 0.000005 0.000005 0.000005 0.000005 0.000005 0.000005 0.000005 0.000005 0.000005 0.000005 0.000005 0.000005 0.000005 0.000005 0.000005 0.000005 0.000005 0.000005 0.000005 0.000005 0.000005 0.000005 0.000005 0.000005 0.000005 0.000005 0.000005 0.000005 0.000005 0.000005 0.000005</float_array>
				<technique_common>
					<accessor source="#Bone002-rotateY.ANGLE-output-array" count="101" stride="1">
						<param type="float"/>
					</accessor>
				</technique_common>
			</source>
			<source id="Bone002-rotateY.ANGLE-interpolation">
				<Name_array id="Bone002-rotateY.ANGLE-interpolation-array" count="101">BEZIER BEZIER BEZIER BEZIER BEZIER BEZIER BEZIER BEZIER BEZIER BEZIER BEZIER BEZIER BEZIER BEZIER BEZIER BEZIER BEZIER BEZIER BEZIER BEZIER BEZIER BEZIER BEZIER BEZIER BEZIER BEZIER BEZIER BEZIER BEZIER BEZIER BEZIER BEZIER BEZIER BEZIER BEZIER BEZIER BEZIER BEZIER BEZIER BEZIER BEZIER BEZIER BEZIER BEZIER BEZIER BEZIER BEZIER BEZIER BEZIER BEZIER BEZIER BEZIER BEZIER BEZIER BEZIER BEZIER BEZIER BEZIER BEZIER BEZIER BEZIER BEZIER BEZIER BEZIER BEZIER BEZIER BEZIER BEZIER BEZIER BEZIER BEZIER BEZIER BEZIER BEZIER BEZIER BEZIER BEZIER BEZIER BEZIER BEZIER BEZIER BEZIER BEZIER BEZIER BEZIER BEZIER BEZIER BEZIER BEZIER BEZIER BEZIER BEZIER BEZIER BEZIER BEZIER BEZIER BEZIER BEZIER BEZIER BEZIER BEZIER</Name_array>
				<technique_common>
					<accessor source="#Bone002-rotateY.ANGLE-interpolation-array" count="101" stride="1">
						<param type="name"/>
					</accessor>
				</technique_common>
			</source>
			<source id="Bone002-rotateY.ANGLE-intan">
				<float_array id="Bone002-rotateY.ANGLE-intan-array" count="202">0.000000 0.000000 0.022222 0.000005 0.055556 0.000005 0.088889 0.000005 0.122222 0.000005 0.155556 0.000005 0.188889 0.000005 0.222222 0.000005 0.255556 0.000005 0.288889 0.000005 0.322222 0.000005 0.355556 0.000005 0.388889 0.000005 0.422222 0.000005 0.455556 0.000005 0.488889 0.000005 0.522222 0.000005 0.555556 0.000005 0.588889 0.000005 0.622222 0.000005 0.655556 0.000005 0.688889 0.000005 0.722222 0.000005 0.755556 0.000005 0.788889 0.000005 0.822222 0.000005 0.855556 0.000005 0.888889 0.000005 0.922222 0.000005 0.955556 0.000005 0.988889 0.000005 1.022222 0.000005 1.055556 0.000005 1.088889 0.000005 1.122222 0.000005 1.155556 0.000005 1.188889 0.000005 1.222222 0.000005 1.255556 0.000005 1.288889 0.000005 1.322222 0.000005 1.355556 0.000005 1.388889 0.000005 1.422222 0.000005 1.455556 0.000005 1.488889 0.000005 1.522222 0.000005 1.555556 0.000005 1.588889 0.000005 1.622222 0.000005 1.655556 0.000005 1.688889 0.000005 1.722222 0.000005 1.755556 0.000005 1.788889 0.000005 1.822222 0.000005 1.855556 0.000005 1.888889 0.000005 1.922222 0.000005 1.955556 0.000005 1.988889 0.000005 2.022222 0.000005 2.055556 0.000005 2.088889 0.000005 2.122222 0.000005 2.155556 0.000005 2.188889 0.000005 2.222222 0.000005 2.255556 0.000005 2.288889 0.000005 2.322222 0.000005 2.355556 0.000005 2.388889 0.000005 2.422222 0.000005 2.455556 0.000005 2.488889 0.000005 2.522222 0.000005 2.555556 0.000005 2.588889 0.000005 2.622222 0.000005 2.655556 0.000005 2.688889 0.000005 2.722222 0.000005 2.755556 0.000005 2.788889 0.000005 2.822222 0.000005 2.855556 0.000005 2.888889 0.000005 2.922222 0.000005 2.955556 0.000005 2.988889 0.000005 3.022222 0.000005 3.055556 0.000005 3.088889 0.000005 3.122222 0.000005 3.155556 0.000005 3.188889 0.000005 3.222222 0.000005 3.255556 0.000005 3.288889 0.000005 3.322222 0.000005</float_array>
				<technique_common>
					<accessor source="#Bone002-rotateY.ANGLE-intan-array" count="101" stride="2">
						<param type="float"/>
						<param type="float"/>
					</accessor>
				</technique_common>
			</source>
			<source id="Bone002-rotateY.ANGLE-outtan">
				<float_array id="Bone002-rotateY.ANGLE-outtan-array" count="202">0.011111 0.000005 0.044444 0.000005 0.077778 0.000005 0.111111 0.000005 0.144444 0.000005 0.177778 0.000005 0.211111 0.000005 0.244444 0.000005 0.277778 0.000005 0.311111 0.000005 0.344444 0.000005 0.377778 0.000005 0.411111 0.000005 0.444444 0.000005 0.477778 0.000005 0.511111 0.000005 0.544444 0.000005 0.577778 0.000005 0.611111 0.000005 0.644444 0.000005 0.677778 0.000005 0.711111 0.000005 0.744444 0.000005 0.777778 0.000005 0.811111 0.000005 0.844444 0.000005 0.877778 0.000005 0.911111 0.000005 0.944444 0.000005 0.977778 0.000005 1.011111 0.000005 1.044444 0.000005 1.077778 0.000005 1.111111 0.000005 1.144444 0.000005 1.177778 0.000005 1.211111 0.000005 1.244444 0.000005 1.277778 0.000005 1.311111 0.000005 1.344444 0.000005 1.377778 0.000005 1.411111 0.000005 1.444444 0.000005 1.477778 0.000005 1.511111 0.000005 1.544444 0.000005 1.577778 0.000005 1.611111 0.000005 1.644444 0.000005 1.677778 0.000005 1.711111 0.000005 1.744444 0.000005 1.777778 0.000005 1.811111 0.000005 1.844444 0.000005 1.877778 0.000005 1.911111 0.000005 1.944444 0.000005 1.977778 0.000005 2.011111 0.000005 2.044444 0.000005 2.077778 0.000005 2.111111 0.000005 2.144444 0.000005 2.177778 0.000005 2.211111 0.000005 2.244444 0.000005 2.277778 0.000005 2.311111 0.000005 2.344444 0.000005 2.377778 0.000005 2.411111 0.000005 2.444444 0.000005 2.477778 0.000005 2.511111 0.000005 2.544444 0.000005 2.577778 0.000005 2.611111 0.000005 2.644444 0.000005 2.677778 0.000005 2.711111 0.000005 2.744444 0.000005 2.777778 0.000005 2.811111 0.000005 2.844444 0.000005 2.877778 0.000005 2.911111 0.000005 2.944444 0.000005 2.977778 0.000005 3.011111 0.000005 3.044444 0.000005 3.077778 0.000005 3.111111 0.000005 3.144444 0.000005 3.177778 0.000005 3.211111 0.000005 3.244444 0.000005 3.277778 0.000005 3.311111 0.000005 0.000000 0.000000</float_array>
				<technique_common>
					<accessor source="#Bone002-rotateY.ANGLE-outtan-array" count="101" stride="2">
						<param type="float"/>
						<param type="float"/>
					</accessor>
				</technique_common>
			</source>
			<sampler id="Bone002-rotateY.ANGLE">
				<input semantic="INPUT" source="#Bone002-rotateY.ANGLE-input"/>
				<input semantic="OUTPUT" source="#Bone002-rotateY.ANGLE-output"/>
				<input semantic="INTERPOLATION" source="#Bone002-rotateY.ANGLE-interpolation"/>
				<input semantic="IN_TANGENT" source="#Bone002-rotateY.ANGLE-intan"/>
				<input semantic="OUT_TANGENT" source="#Bone002-rotateY.ANGLE-outtan"/>
			</sampler>
			<channel source="#Bone002-rotateY.ANGLE" target="Bone002/rotateY.ANGLE"/>
		</animation>
		<animation>
			<source id="Bone002-rotateZ.ANGLE-input">
				<float_array id="Bone002-rotateZ.ANGLE-input-array" count="101">0.000000 0.033333 0.066667 0.100000 0.133333 0.166667 0.200000 0.233333 0.266667 0.300000 0.333333 0.366667 0.400000 0.433333 0.466667 0.500000 0.533333 0.566667 0.600000 0.633333 0.666667 0.700000 0.733333 0.766667 0.800000 0.833333 0.866667 0.900000 0.933333 0.966667 1.000000 1.033333 1.066667 1.100000 1.133333 1.166667 1.200000 1.233333 1.266667 1.300000 1.333333 1.366667 1.400000 1.433333 1.466667 1.500000 1.533333 1.566667 1.600000 1.633333 1.666667 1.700000 1.733333 1.766667 1.800000 1.833333 1.866667 1.900000 1.933333 1.966667 2.000000 2.033333 2.066667 2.100000 2.133333 2.166667 2.200000 2.233333 2.266667 2.300000 2.333333 2.366667 2.400000 2.433333 2.466667 2.500000 2.533333 2.566667 2.600000 2.633333 2.666667 2.700000 2.733333 2.766667 2.800000 2.833333 2.866667 2.900000 2.933333 2.966667 3.000000 3.033333 3.066667 3.100000 3.133333 3.166667 3.200000 3.233333 3.266667 3.300000 3.333333</float_array>
				<technique_common>
					<accessor source="#Bone002-rotateZ.ANGLE-input-array" count="101" stride="1">
						<param type="float"/>
					</accessor>
				</technique_common>
			</source>
			<source id="Bone002-rotateZ.ANGLE-output">
				<float_array id="Bone002-rotateZ.ANGLE-output-array" count="101">0.000009 0.000009 0.000009 0.000009 0.000009 0.000009 0.000009 0.000009 0.000009 0.000009 0.000009 0.000009 0.000009 0.000009 0.000009 0.000009 0.000009 0.000009 0.000009 0.000009 0.000009 0.000009 0.000009 0.000009 0.000009 0.000009 0.000009 0.000009 0.000009 0.000009 0.000009 0.000009 0.000009 0.000009 0.000009 0.000009 0.000009 0.000009 0.000009 0.000009 0.000009 0.000009 0.000009 0.000009 0.000009 0.000009 0.000009 0.000009 0.000009 0.000009 0.000009 0.000009 0.000009 0.000009 0.000009 0.000009 0.000009 0.000009 0.000009 0.000009 0.000009 0.000009 0.000009 0.000009 0.000009 0.000009 0.000009 0.000009 0.000009 0.000009 0.000009 0.000009 0.000009 0.000009 0.000009 0.000009 0.000009 0.000009 0.000009 0.000009 0.000009 0.000009 0.000009 0.000009 0.000009 0.000009 0.000009 0.000009 0.000009 0.000009 0.000009 0.000009 0.000009 0.000009 0.000009 0.000009 0.000009 0.000009 0.000009 0.000009 0.000009</float_array>
				<technique_common>
					<accessor source="#Bone002-rotateZ.ANGLE-output-array" count="101" stride="1">
						<param type="float"/>
					</accessor>
				</technique_common>
			</source>
			<source id="Bone002-rotateZ.ANGLE-interpolation">
				<Name_array id="Bone002-rotateZ.ANGLE-interpolation-array" count="101">BEZIER BEZIER BEZIER BEZIER BEZIER BEZIER BEZIER BEZIER BEZIER BEZIER BEZIER BEZIER BEZIER BEZIER BEZIER BEZIER BEZIER BEZIER BEZIER BEZIER BEZIER BEZIER BEZIER BEZIER BEZIER BEZIER BEZIER BEZIER BEZIER BEZIER BEZIER BEZIER BEZIER BEZIER BEZIER BEZIER BEZIER BEZIER BEZIER BEZIER BEZIER BEZIER BEZIER BEZIER BEZIER BEZIER BEZIER BEZIER BEZIER BEZIER BEZIER BEZIER BEZIER BEZIER BEZIER BEZIER BEZIER BEZIER BEZIER BEZIER BEZIER BEZIER BEZIER BEZIER BEZIER BEZIER BEZIER BEZIER BEZIER BEZIER BEZIER BEZIER BEZIER BEZIER BEZIER BEZIER BEZIER BEZIER BEZIER BEZIER BEZIER BEZIER BEZIER BEZIER BEZIER BEZIER BEZIER BEZIER BEZIER BEZIER BEZIER BEZIER BEZIER BEZIER BEZIER BEZIER BEZIER BEZIER BEZIER BEZIER BEZIER</Name_array>
				<technique_common>
					<accessor source="#Bone002-rotateZ.ANGLE-interpolation-array" count="101" stride="1">
						<param type="name"/>
					</accessor>
				</technique_common>
			</source>
			<source id="Bone002-rotateZ.ANGLE-intan">
				<float_array id="Bone002-rotateZ.ANGLE-intan-array" count="202">0.000000 0.000000 0.022222 0.000009 0.055556 0.000009 0.088889 0.000009 0.122222 0.000009 0.155556 0.000009 0.188889 0.000009 0.222222 0.000009 0.255556 0.000009 0.288889 0.000009 0.322222 0.000009 0.355556 0.000009 0.388889 0.000009 0.422222 0.000009 0.455556 0.000009 0.488889 0.000009 0.522222 0.000009 0.555556 0.000009 0.588889 0.000009 0.622222 0.000009 0.655556 0.000009 0.688889 0.000009 0.722222 0.000009 0.755556 0.000009 0.788889 0.000009 0.822222 0.000009 0.855556 0.000009 0.888889 0.000009 0.922222 0.000009 0.955556 0.000009 0.988889 0.000009 1.022222 0.000009 1.055556 0.000009 1.088889 0.000009 1.122222 0.000009 1.155556 0.000009 1.188889 0.000009 1.222222 0.000009 1.255556 0.000009 1.288889 0.000009 1.322222 0.000009 1.355556 0.000009 1.388889 0.000009 1.422222 0.000009 1.455556 0.000009 1.488889 0.000009 1.522222 0.000009 1.555556 0.000009 1.588889 0.000009 1.622222 0.000009 1.655556 0.000009 1.688889 0.000009 1.722222 0.000009 1.755556 0.000009 1.788889 0.000009 1.822222 0.000009 1.855556 0.000009 1.888889 0.000009 1.922222 0.000009 1.955556 0.000009 1.988889 0.000009 2.022222 0.000009 2.055556 0.000009 2.088889 0.000009 2.122222 0.000009 2.155556 0.000009 2.188889 0.000009 2.222222 0.000009 2.255556 0.000009 2.288889 0.000009 2.322222 0.000009 2.355556 0.000009 2.388889 0.000009 2.422222 0.000009 2.455556 0.000009 2.488889 0.000009 2.522222 0.000009 2.555556 0.000009 2.588889 0.000009 2.622222 0.000009 2.655556 0.000009 2.688889 0.000009 2.722222 0.000009 2.755556 0.000009 2.788889 0.000009 2.822222 0.000009 2.855556 0.000009 2.888889 0.000009 2.922222 0.000009 2.955556 0.000009 2.988889 0.000009 3.022222 0.000009 3.055556 0.000009 3.088889 0.000009 3.122222 0.000009 3.155556 0.000009 3.188889 0.000009 3.222222 0.000009 3.255556 0.000009 3.288889 0.000009 3.322222 0.000009</float_array>
				<technique_common>
					<accessor source="#Bone002-rotateZ.ANGLE-intan-array" count="101" stride="2">
						<param type="float"/>
						<param type="float"/>
					</accessor>
				</technique_common>
			</source>
			<source id="Bone002-rotateZ.ANGLE-outtan">
				<float_array id="Bone002-rotateZ.ANGLE-outtan-array" count="202">0.011111 0.000009 0.044444 0.000009 0.077778 0.000009 0.111111 0.000009 0.144444 0.000009 0.177778 0.000009 0.211111 0.000009 0.244444 0.000009 0.277778 0.000009 0.311111 0.000009 0.344444 0.000009 0.377778 0.000009 0.411111 0.000009 0.444444 0.000009 0.477778 0.000009 0.511111 0.000009 0.544444 0.000009 0.577778 0.000009 0.611111 0.000009 0.644444 0.000009 0.677778 0.000009 0.711111 0.000009 0.744444 0.000009 0.777778 0.000009 0.811111 0.000009 0.844444 0.000009 0.877778 0.000009 0.911111 0.000009 0.944444 0.000009 0.977778 0.000009 1.011111 0.000009 1.044444 0.000009 1.077778 0.000009 1.111111 0.000009 1.144444 0.000009 1.177778 0.000009 1.211111 0.000009 1.244444 0.000009 1.277778 0.000009 1.311111 0.000009 1.344444 0.000009 1.377778 0.000009 1.411111 0.000009 1.444444 0.000009 1.477778 0.000009 1.511111 0.000009 1.544444 0.000009 1.577778 0.000009 1.611111 0.000009 1.644444 0.000009 1.677778 0.000009 1.711111 0.000009 1.744444 0.000009 1.777778 0.000009 1.811111 0.000009 1.844444 0.000009 1.877778 0.000009 1.911111 0.000009 1.944444 0.000009 1.977778 0.000009 2.011111 0.000009 2.044444 0.000009 2.077778 0.000009 2.111111 0.000009 2.144444 0.000009 2.177778 0.000009 2.211111 0.000009 2.244444 0.000009 2.277778 0.000009 2.311111 0.000009 2.344444 0.000009 2.377778 0.000009 2.411111 0.000009 2.444444 0.000009 2.477778 0.000009 2.511111 0.000009 2.544444 0.000009 2.577778 0.000009 2.611111 0.000009 2.644444 0.000009 2.677778 0.000009 2.711111 0.000009 2.744444 0.000009 2.777778 0.000009 2.811111 0.000009 2.844444 0.000009 2.877778 0.000009 2.911111 0.000009 2.944444 0.000009 2.977778 0.000009 3.011111 0.000009 3.044444 0.000009 3.077778 0.000009 3.111111 0.000009 3.144444 0.000009 3.177778 0.000009 3.211111 0.000009 3.244444 0.000009 3.277778 0.000009 3.311111 0.000009 0.000000 0.000000</float_array>
				<technique_common>
					<accessor source="#Bone002-rotateZ.ANGLE-outtan-array" count="101" stride="2">
						<param type="float"/>
						<param type="float"/>
					</accessor>
				</technique_common>
			</source>
			<sampler id="Bone002-rotateZ.ANGLE">
				<input semantic="INPUT" source="#Bone002-rotateZ.ANGLE-input"/>
				<input semantic="OUTPUT" source="#Bone002-rotateZ.ANGLE-output"/>
				<input semantic="INTERPOLATION" source="#Bone002-rotateZ.ANGLE-interpolation"/>
				<input semantic="IN_TANGENT" source="#Bone002-rotateZ.ANGLE-intan"/>
				<input semantic="OUT_TANGENT" source="#Bone002-rotateZ.ANGLE-outtan"/>
			</sampler>
			<channel source="#Bone002-rotateZ.ANGLE" target="Bone002/rotateZ.ANGLE"/>
		</animation>
		<animation id="Plane001-anim" name="Plane001"/>
		<animation>
			<source id="Plane001-rotateX.ANGLE-input">
				<float_array id="Plane001-rotateX.ANGLE-input-array" count="101">0.000000 0.033333 0.066667 0.100000 0.133333 0.166667 0.200000 0.233333 0.266667 0.300000 0.333333 0.366667 0.400000 0.433333 0.466667 0.500000 0.533333 0.566667 0.600000 0.633333 0.666667 0.700000 0.733333 0.766667 0.800000 0.833333 0.866667 0.900000 0.933333 0.966667 1.000000 1.033333 1.066667 1.100000 1.133333 1.166667 1.200000 1.233333 1.266667 1.300000 1.333333 1.366667 1.400000 1.433333 1.466667 1.500000 1.533333 1.566667 1.600000 1.633333 1.666667 1.700000 1.733333 1.766667 1.800000 1.833333 1.866667 1.900000 1.933333 1.966667 2.000000 2.033333 2.066667 2.100000 2.133333 2.166667 2.200000 2.233333 2.266667 2.300000 2.333333 2.366667 2.400000 2.433333 2.466667 2.500000 2.533333 2.566667 2.600000 2.633333 2.666667 2.700000 2.733333 2.766667 2.800000 2.833333 2.866667 2.900000 2.933333 2.966667 3.000000 3.033333 3.066667 3.100000 3.133333 3.166667 3.200000 3.233333 3.266667 3.300000 3.333333</float_array>
				<technique_common>
					<accessor source="#Plane001-rotateX.ANGLE-input-array" count="101" stride="1">
						<param type="float"/>
					</accessor>
				</technique_common>
			</source>
			<source id="Plane001-rotateX.ANGLE-output">
				<float_array id="Plane001-rotateX.ANGLE-output-array" count="101">360.000000 360.000000 360.000000 360.000000 360.000000 360.000000 360.000000 360.000000 360.000000 360.000000 360.000000 360.000000 360.000000 360.000000 360.000000 360.000000 360.000000 360.000000 360.000000 360.000000 360.000000 360.000000 360.000000 360.000000 360.000000 360.000000 360.000000 360.000000 360.000000 360.000000 360.000000 360.000000 360.000000 360.000000 360.000000 360.000000 360.000000 360.000000 360.000000 360.000000 360.000000 360.000000 360.000000 360.000000 360.000000 360.000000 360.000000 360.000000 360.000000 360.000000 360.000000 360.000000 360.000000 360.000000 360.000000 360.000000 360.000000 360.000000 360.000000 360.000000 360.000000 360.000000 360.000000 360.000000 360.000000 360.000000 360.000000 360.000000 360.000000 360.000000 360.000000 360.000000 360.000000 360.000000 360.000000 360.000000 360.000000 360.000000 360.000000 360.000000 360.000000 360.000000 360.000000 360.000000 360.000000 360.000000 360.000000 360.000000 360.000000 360.000000 360.000000 360.000000 360.000000 360.000000 360.000000 360.000000 360.000000 360.000000 360.000000 360.000000 360.000000</float_array>
				<technique_common>
					<accessor source="#Plane001-rotateX.ANGLE-output-array" count="101" stride="1">
						<param type="float"/>
					</accessor>
				</technique_common>
			</source>
			<source id="Plane001-rotateX.ANGLE-interpolation">
				<Name_array id="Plane001-rotateX.ANGLE-interpolation-array" count="101">BEZIER BEZIER BEZIER BEZIER BEZIER BEZIER BEZIER BEZIER BEZIER BEZIER BEZIER BEZIER BEZIER BEZIER BEZIER BEZIER BEZIER BEZIER BEZIER BEZIER BEZIER BEZIER BEZIER BEZIER BEZIER BEZIER BEZIER BEZIER BEZIER BEZIER BEZIER BEZIER BEZIER BEZIER BEZIER BEZIER BEZIER BEZIER BEZIER BEZIER BEZIER BEZIER BEZIER BEZIER BEZIER BEZIER BEZIER BEZIER BEZIER BEZIER BEZIER BEZIER BEZIER BEZIER BEZIER BEZIER BEZIER BEZIER BEZIER BEZIER BEZIER BEZIER BEZIER BEZIER BEZIER BEZIER BEZIER BEZIER BEZIER BEZIER BEZIER BEZIER BEZIER BEZIER BEZIER BEZIER BEZIER BEZIER BEZIER BEZIER BEZIER BEZIER BEZIER BEZIER BEZIER BEZIER BEZIER BEZIER BEZIER BEZIER BEZIER BEZIER BEZIER BEZIER BEZIER BEZIER BEZIER BEZIER BEZIER BEZIER BEZIER</Name_array>
				<technique_common>
					<accessor source="#Plane001-rotateX.ANGLE-interpolation-array" count="101" stride="1">
						<param type="name"/>
					</accessor>
				</technique_common>
			</source>
			<source id="Plane001-rotateX.ANGLE-intan">
				<float_array id="Plane001-rotateX.ANGLE-intan-array" count="202">0.000000 0.000000 0.022222 360.000000 0.055556 360.000000 0.088889 360.000000 0.122222 360.000000 0.155556 360.000000 0.188889 360.000000 0.222222 360.000000 0.255556 360.000000 0.288889 360.000000 0.322222 360.000000 0.355556 360.000000 0.388889 360.000000 0.422222 360.000000 0.455556 360.000000 0.488889 360.000000 0.522222 360.000000 0.555556 360.000000 0.588889 360.000000 0.622222 360.000000 0.655556 360.000000 0.688889 360.000000 0.722222 360.000000 0.755556 360.000000 0.788889 360.000000 0.822222 360.000000 0.855556 360.000000 0.888889 360.000000 0.922222 360.000000 0.955556 360.000000 0.988889 360.000000 1.022222 360.000000 1.055556 360.000000 1.088889 360.000000 1.122222 360.000000 1.155556 360.000000 1.188889 360.000000 1.222222 360.000000 1.255556 360.000000 1.288889 360.000000 1.322222 360.000000 1.355556 360.000000 1.388889 360.000000 1.422222 360.000000 1.455556 360.000000 1.488889 360.000000 1.522222 360.000000 1.555556 360.000000 1.588889 360.000000 1.622222 360.000000 1.655556 360.000000 1.688889 360.000000 1.722222 360.000000 1.755556 360.000000 1.788889 360.000000 1.822222 360.000000 1.855556 360.000000 1.888889 360.000000 1.922222 360.000000 1.955556 360.000000 1.988889 360.000000 2.022222 360.000000 2.055556 360.000000 2.088889 360.000000 2.122222 360.000000 2.155556 360.000000 2.188889 360.000000 2.222222 360.000000 2.255556 360.000000 2.288889 360.000000 2.322222 360.000000 2.355556 360.000000 2.388889 360.000000 2.422222 360.000000 2.455556 360.000000 2.488889 360.000000 2.522222 360.000000 2.555556 360.000000 2.588889 360.000000 2.622222 360.000000 2.655556 360.000000 2.688889 360.000000 2.722222 360.000000 2.755556 360.000000 2.788889 360.000000 2.822222 360.000000 2.855556 360.000000 2.888889 360.000000 2.922222 360.000000 2.955556 360.000000 2.988889 360.000000 3.022222 360.000000 3.055556 360.000000 3.088889 360.000000 3.122222 360.000000 3.155556 360.000000 3.188889 360.000000 3.222222 360.000000 3.255556 360.000000 3.288889 360.000000 3.322222 360.000000</float_array>
				<technique_common>
					<accessor source="#Plane001-rotateX.ANGLE-intan-array" count="101" stride="2">
						<param type="float"/>
						<param type="float"/>
					</accessor>
				</technique_common>
			</source>
			<source id="Plane001-rotateX.ANGLE-outtan">
				<float_array id="Plane001-rotateX.ANGLE-outtan-array" count="202">0.011111 360.000000 0.044444 360.000000 0.077778 360.000000 0.111111 360.000000 0.144444 360.000000 0.177778 360.000000 0.211111 360.000000 0.244444 360.000000 0.277778 360.000000 0.311111 360.000000 0.344444 360.000000 0.377778 360.000000 0.411111 360.000000 0.444444 360.000000 0.477778 360.000000 0.511111 360.000000 0.544444 360.000000 0.577778 360.000000 0.611111 360.000000 0.644444 360.000000 0.677778 360.000000 0.711111 360.000000 0.744444 360.000000 0.777778 360.000000 0.811111 360.000000 0.844444 360.000000 0.877778 360.000000 0.911111 360.000000 0.944444 360.000000 0.977778 360.000000 1.011111 360.000000 1.044444 360.000000 1.077778 360.000000 1.111111 360.000000 1.144444 360.000000 1.177778 360.000000 1.211111 360.000000 1.244444 360.000000 1.277778 360.000000 1.311111 360.000000 1.344444 360.000000 1.377778 360.000000 1.411111 360.000000 1.444444 360.000000 1.477778 360.000000 1.511111 360.000000 1.544444 360.000000 1.577778 360.000000 1.611111 360.000000 1.644444 360.000000 1.677778 360.000000 1.711111 360.000000 1.744444 360.000000 1.777778 360.000000 1.811111 360.000000 1.844444 360.000000 1.877778 360.000000 1.911111 360.000000 1.944444 360.000000 1.977778 360.000000 2.011111 360.000000 2.044444 360.000000 2.077778 360.000000 2.111111 360.000000 2.144444 360.000000 2.177778 360.000000 2.211111 360.000000 2.244444 360.000000 2.277778 360.000000 2.311111 360.000000 2.344444 360.000000 2.377778 360.000000 2.411111 360.000000 2.444444 360.000000 2.477778 360.000000 2.511111 360.000000 2.544444 360.000000 2.577778 360.000000 2.611111 360.000000 2.644444 360.000000 2.677778 360.000000 2.711111 360.000000 2.744444 360.000000 2.777778 360.000000 2.811111 360.000000 2.844444 360.000000 2.877778 360.000000 2.911111 360.000000 2.944444 360.000000 2.977778 360.000000 3.011111 360.000000 3.044444 360.000000 3.077778 360.000000 3.111111 360.000000 3.144444 360.000000 3.177778 360.000000 3.211111 360.000000 3.244444 360.000000 3.277778 360.000000 3.311111 360.000000 0.000000 0.000000</float_array>
				<technique_common>
					<accessor source="#Plane001-rotateX.ANGLE-outtan-array" count="101" stride="2">
						<param type="float"/>
						<param type="float"/>
					</accessor>
				</technique_common>
			</source>
			<sampler id="Plane001-rotateX.ANGLE">
				<input semantic="INPUT" source="#Plane001-rotateX.ANGLE-input"/>
				<input semantic="OUTPUT" source="#Plane001-rotateX.ANGLE-output"/>
				<input semantic="INTERPOLATION" source="#Plane001-rotateX.ANGLE-interpolation"/>
				<input semantic="IN_TANGENT" source="#Plane001-rotateX.ANGLE-intan"/>
				<input semantic="OUT_TANGENT" source="#Plane001-rotateX.ANGLE-outtan"/>
			</sampler>
			<channel source="#Plane001-rotateX.ANGLE" target="Plane001/rotateX.ANGLE"/>
		</animation>
		<animation>
			<source id="Plane001-rotateY.ANGLE-input">
				<float_array id="Plane001-rotateY.ANGLE-input-array" count="101">0.000000 0.033333 0.066667 0.100000 0.133333 0.166667 0.200000 0.233333 0.266667 0.300000 0.333333 0.366667 0.400000 0.433333 0.466667 0.500000 0.533333 0.566667 0.600000 0.633333 0.666667 0.700000 0.733333 0.766667 0.800000 0.833333 0.866667 0.900000 0.933333 0.966667 1.000000 1.033333 1.066667 1.100000 1.133333 1.166667 1.200000 1.233333 1.266667 1.300000 1.333333 1.366667 1.400000 1.433333 1.466667 1.500000 1.533333 1.566667 1.600000 1.633333 1.666667 1.700000 1.733333 1.766667 1.800000 1.833333 1.866667 1.900000 1.933333 1.966667 2.000000 2.033333 2.066667 2.100000 2.133333 2.166667 2.200000 2.233333 2.266667 2.300000 2.333333 2.366667 2.400000 2.433333 2.466667 2.500000 2.533333 2.566667 2.600000 2.633333 2.666667 2.700000 2.733333 2.766667 2.800000 2.833333 2.866667 2.900000 2.933333 2.966667 3.000000 3.033333 3.066667 3.100000 3.133333 3.166667 3.200000 3.233333 3.266667 3.300000 3.333333</float_array>
				<technique_common>
					<accessor source="#Plane001-rotateY.ANGLE-input-array" count="101" stride="1">
						<param type="float"/>
					</accessor>
				</technique_common>
			</source>
			<source id="Plane001-rotateY.ANGLE-output">
				<float_array id="Plane001-rotateY.ANGLE-output-array" count="101">0.000000 0.000000 0.000000 0.000000 0.000000 0.000000 0.000000 0.000000 0.000000 0.000000 0.000000 0.000000 0.000000 0.000000 0.000000 0.000000 0.000000 0.000000 0.000000 0.000000 0.000000 0.000000 0.000000 0.000000 0.000000 0.000000 0.000000 0.000000 0.000000 0.000000 0.000000 0.000000 0.000000 0.000000 0.000000 0.000000 0.000000 0.000000 0.000000 0.000000 0.000000 0.000000 0.000000 0.000000 0.000000 0.000000 0.000000 0.000000 0.000000 0.000000 0.000000 0.000000 0.000000 0.000000 0.000000 0.000000 0.000000 0.000000 0.000000 0.000000 0.000000 0.000000 0.000000 0.000000 0.000000 0.000000 0.000000 0.000000 0.000000 0.000000 0.000000 0.000000 0.000000 0.000000 0.000000 0.000000 0.000000 0.000000 0.000000 0.000000 0.000000 0.000000 0.000000 0.000000 0.000000 0.000000 0.000000 0.000000 0.000000 0.000000 0.000000 0.000000 0.000000 0.000000 0.000000 0.000000 0.000000 0.000000 0.000000 0.000000 0.000000</float_array>
				<technique_common>
					<accessor source="#Plane001-rotateY.ANGLE-output-array" count="101" stride="1">
						<param type="float"/>
					</accessor>
				</technique_common>
			</source>
			<source id="Plane001-rotateY.ANGLE-interpolation">
				<Name_array id="Plane001-rotateY.ANGLE-interpolation-array" count="101">BEZIER BEZIER BEZIER BEZIER BEZIER BEZIER BEZIER BEZIER BEZIER BEZIER BEZIER BEZIER BEZIER BEZIER BEZIER BEZIER BEZIER BEZIER BEZIER BEZIER BEZIER BEZIER BEZIER BEZIER BEZIER BEZIER BEZIER BEZIER BEZIER BEZIER BEZIER BEZIER BEZIER BEZIER BEZIER BEZIER BEZIER BEZIER BEZIER BEZIER BEZIER BEZIER BEZIER BEZIER BEZIER BEZIER BEZIER BEZIER BEZIER BEZIER BEZIER BEZIER BEZIER BEZIER BEZIER BEZIER BEZIER BEZIER BEZIER BEZIER BEZIER BEZIER BEZIER BEZIER BEZIER BEZIER BEZIER BEZIER BEZIER BEZIER BEZIER BEZIER BEZIER BEZIER BEZIER BEZIER BEZIER BEZIER BEZIER BEZIER BEZIER BEZIER BEZIER BEZIER BEZIER BEZIER BEZIER BEZIER BEZIER BEZIER BEZIER BEZIER BEZIER BEZIER BEZIER BEZIER BEZIER BEZIER BEZIER BEZIER BEZIER</Name_array>
				<technique_common>
					<accessor source="#Plane001-rotateY.ANGLE-interpolation-array" count="101" stride="1">
						<param type="name"/>
					</accessor>
				</technique_common>
			</source>
			<source id="Plane001-rotateY.ANGLE-intan">
				<float_array id="Plane001-rotateY.ANGLE-intan-array" count="202">0.000000 0.000000 0.022222 0.000000 0.055556 0.000000 0.088889 0.000000 0.122222 0.000000 0.155556 0.000000 0.188889 0.000000 0.222222 0.000000 0.255556 0.000000 0.288889 0.000000 0.322222 0.000000 0.355556 0.000000 0.388889 0.000000 0.422222 0.000000 0.455556 0.000000 0.488889 0.000000 0.522222 0.000000 0.555556 0.000000 0.588889 0.000000 0.622222 0.000000 0.655556 0.000000 0.688889 0.000000 0.722222 0.000000 0.755556 0.000000 0.788889 0.000000 0.822222 0.000000 0.855556 0.000000 0.888889 0.000000 0.922222 0.000000 0.955556 0.000000 0.988889 0.000000 1.022222 0.000000 1.055556 0.000000 1.088889 0.000000 1.122222 0.000000 1.155556 0.000000 1.188889 0.000000 1.222222 0.000000 1.255556 0.000000 1.288889 0.000000 1.322222 0.000000 1.355556 0.000000 1.388889 0.000000 1.422222 0.000000 1.455556 0.000000 1.488889 0.000000 1.522222 0.000000 1.555556 0.000000 1.588889 0.000000 1.622222 0.000000 1.655556 0.000000 1.688889 0.000000 1.722222 0.000000 1.755556 0.000000 1.788889 0.000000 1.822222 0.000000 1.855556 0.000000 1.888889 0.000000 1.922222 0.000000 1.955556 0.000000 1.988889 0.000000 2.022222 0.000000 2.055556 0.000000 2.088889 0.000000 2.122222 0.000000 2.155556 0.000000 2.188889 0.000000 2.222222 0.000000 2.255556 0.000000 2.288889 0.000000 2.322222 0.000000 2.355556 0.000000 2.388889 0.000000 2.422222 0.000000 2.455556 0.000000 2.488889 0.000000 2.522222 0.000000 2.555556 0.000000 2.588889 0.000000 2.622222 0.000000 2.655556 0.000000 2.688889 0.000000 2.722222 0.000000 2.755556 0.000000 2.788889 0.000000 2.822222 0.000000 2.855556 0.000000 2.888889 0.000000 2.922222 0.000000 2.955556 0.000000 2.988889 0.000000 3.022222 0.000000 3.055556 0.000000 3.088889 0.000000 3.122222 0.000000 3.155556 0.000000 3.188889 0.000000 3.222222 0.000000 3.255556 0.000000 3.288889 0.000000 3.322222 0.000000</float_array>
				<technique_common>
					<accessor source="#Plane001-rotateY.ANGLE-intan-array" count="101" stride="2">
						<param type="float"/>
						<param type="float"/>
					</accessor>
				</technique_common>
			</source>
			<source id="Plane001-rotateY.ANGLE-outtan">
				<float_array id="Plane001-rotateY.ANGLE-outtan-array" count="202">0.011111 0.000000 0.044444 0.000000 0.077778 0.000000 0.111111 0.000000 0.144444 0.000000 0.177778 0.000000 0.211111 0.000000 0.244444 0.000000 0.277778 0.000000 0.311111 0.000000 0.344444 0.000000 0.377778 0.000000 0.411111 0.000000 0.444444 0.000000 0.477778 0.000000 0.511111 0.000000 0.544444 0.000000 0.577778 0.000000 0.611111 0.000000 0.644444 0.000000 0.677778 0.000000 0.711111 0.000000 0.744444 0.000000 0.777778 0.000000 0.811111 0.000000 0.844444 0.000000 0.877778 0.000000 0.911111 0.000000 0.944444 0.000000 0.977778 0.000000 1.011111 0.000000 1.044444 0.000000 1.077778 0.000000 1.111111 0.000000 1.144444 0.000000 1.177778 0.000000 1.211111 0.000000 1.244444 0.000000 1.277778 0.000000 1.311111 0.000000 1.344444 0.000000 1.377778 0.000000 1.411111 0.000000 1.444444 0.000000 1.477778 0.000000 1.511111 0.000000 1.544444 0.000000 1.577778 0.000000 1.611111 0.000000 1.644444 0.000000 1.677778 0.000000 1.711111 0.000000 1.744444 0.000000 1.777778 0.000000 1.811111 0.000000 1.844444 0.000000 1.877778 0.000000 1.911111 0.000000 1.944444 0.000000 1.977778 0.000000 2.011111 0.000000 2.044444 0.000000 2.077778 0.000000 2.111111 0.000000 2.144444 0.000000 2.177778 0.000000 2.211111 0.000000 2.244444 0.000000 2.277778 0.000000 2.311111 0.000000 2.344444 0.000000 2.377778 0.000000 2.411111 0.000000 2.444444 0.000000 2.477778 0.000000 2.511111 0.000000 2.544444 0.000000 2.577778 0.000000 2.611111 0.000000 2.644444 0.000000 2.677778 0.000000 2.711111 0.000000 2.744444 0.000000 2.777778 0.000000 2.811111 0.000000 2.844444 0.000000 2.877778 0.000000 2.911111 0.000000 2.944444 0.000000 2.977778 0.000000 3.011111 0.000000 3.044444 0.000000 3.077778 0.000000 3.111111 0.000000 3.144444 0.000000 3.177778 0.000000 3.211111 0.000000 3.244444 0.000000 3.277778 0.000000 3.311111 0.000000 0.000000 0.000000</float_array>
				<technique_common>
					<accessor source="#Plane001-rotateY.ANGLE-outtan-array" count="101" stride="2">
						<param type="float"/>
						<param type="float"/>
					</accessor>
				</technique_common>
			</source>
			<sampler id="Plane001-rotateY.ANGLE">
				<input semantic="INPUT" source="#Plane001-rotateY.ANGLE-input"/>
				<input semantic="OUTPUT" source="#Plane001-rotateY.ANGLE-output"/>
				<input semantic="INTERPOLATION" source="#Plane001-rotateY.ANGLE-interpolation"/>
				<input semantic="IN_TANGENT" source="#Plane001-rotateY.ANGLE-intan"/>
				<input semantic="OUT_TANGENT" source="#Plane001-rotateY.ANGLE-outtan"/>
			</sampler>
			<channel source="#Plane001-rotateY.ANGLE" target="Plane001/rotateY.ANGLE"/>
		</animation>
		<animation>
			<source id="Plane001-rotateZ.ANGLE-input">
				<float_array id="Plane001-rotateZ.ANGLE-input-array" count="101">0.000000 0.033333 0.066667 0.100000 0.133333 0.166667 0.200000 0.233333 0.266667 0.300000 0.333333 0.366667 0.400000 0.433333 0.466667 0.500000 0.533333 0.566667 0.600000 0.633333 0.666667 0.700000 0.733333 0.766667 0.800000 0.833333 0.866667 0.900000 0.933333 0.966667 1.000000 1.033333 1.066667 1.100000 1.133333 1.166667 1.200000 1.233333 1.266667 1.300000 1.333333 1.366667 1.400000 1.433333 1.466667 1.500000 1.533333 1.566667 1.600000 1.633333 1.666667 1.700000 1.733333 1.766667 1.800000 1.833333 1.866667 1.900000 1.933333 1.966667 2.000000 2.033333 2.066667 2.100000 2.133333 2.166667 2.200000 2.233333 2.266667 2.300000 2.333333 2.366667 2.400000 2.433333 2.466667 2.500000 2.533333 2.566667 2.600000 2.633333 2.666667 2.700000 2.733333 2.766667 2.800000 2.833333 2.866667 2.900000 2.933333 2.966667 3.000000 3.033333 3.066667 3.100000 3.133333 3.166667 3.200000 3.233333 3.266667 3.300000 3.333333</float_array>
				<technique_common>
					<accessor source="#Plane001-rotateZ.ANGLE-input-array" count="101" stride="1">
						<param type="float"/>
					</accessor>
				</technique_common>
			</source>
			<source id="Plane001-rotateZ.ANGLE-output">
				<float_array id="Plane001-rotateZ.ANGLE-output-array" count="101">0.000000 0.000000 0.000000 0.000000 0.000000 0.000000 0.000000 0.000000 0.000000 0.000000 0.000000 0.000000 0.000000 0.000000 0.000000 0.000000 0.000000 0.000000 0.000000 0.000000 0.000000 0.000000 0.000000 0.000000 0.000000 0.000000 0.000000 0.000000 0.000000 0.000000 0.000000 0.000000 0.000000 0.000000 0.000000 0.000000 0.000000 0.000000 0.000000 0.000000 0.000000 0.000000 0.000000 0.000000 0.000000 0.000000 0.000000 0.000000 0.000000 0.000000 0.000000 0.000000 0.000000 0.000000 0.000000 0.000000 0.000000 0.000000 0.000000 0.000000 0.000000 0.000000 0.000000 0.000000 0.000000 0.000000 0.000000 0.000000 0.000000 0.000000 0.000000 0.000000 0.000000 0.000000 0.000000 0.000000 0.000000 0.000000 0.000000 0.000000 0.000000 0.000000 0.000000 0.000000 0.000000 0.000000 0.000000 0.000000 0.000000 0.000000 0.000000 0.000000 0.000000 0.000000 0.000000 0.000000 0.000000 0.000000 0.000000 0.000000 0.000000</float_array>
				<technique_common>
					<accessor source="#Plane001-rotateZ.ANGLE-output-array" count="101" stride="1">
						<param type="float"/>
					</accessor>
				</technique_common>
			</source>
			<source id="Plane001-rotateZ.ANGLE-interpolation">
				<Name_array id="Plane001-rotateZ.ANGLE-interpolation-array" count="101">BEZIER BEZIER BEZIER BEZIER BEZIER BEZIER BEZIER BEZIER BEZIER BEZIER BEZIER BEZIER BEZIER BEZIER BEZIER BEZIER BEZIER BEZIER BEZIER BEZIER BEZIER BEZIER BEZIER BEZIER BEZIER BEZIER BEZIER BEZIER BEZIER BEZIER BEZIER BEZIER BEZIER BEZIER BEZIER BEZIER BEZIER BEZIER BEZIER BEZIER BEZIER BEZIER BEZIER BEZIER BEZIER BEZIER BEZIER BEZIER BEZIER BEZIER BEZIER BEZIER BEZIER BEZIER BEZIER BEZIER BEZIER BEZIER BEZIER BEZIER BEZIER BEZIER BEZIER BEZIER BEZIER BEZIER BEZIER BEZIER BEZIER BEZIER BEZIER BEZIER BEZIER BEZIER BEZIER BEZIER BEZIER BEZIER BEZIER BEZIER BEZIER BEZIER BEZIER BEZIER BEZIER BEZIER BEZIER BEZIER BEZIER BEZIER BEZIER BEZIER BEZIER BEZIER BEZIER BEZIER BEZIER BEZIER BEZIER BEZIER BEZIER</Name_array>
				<technique_common>
					<accessor source="#Plane001-rotateZ.ANGLE-interpolation-array" count="101" stride="1">
						<param type="name"/>
					</accessor>
				</technique_common>
			</source>
			<source id="Plane001-rotateZ.ANGLE-intan">
				<float_array id="Plane001-rotateZ.ANGLE-intan-array" count="202">0.000000 0.000000 0.022222 0.000000 0.055556 0.000000 0.088889 0.000000 0.122222 0.000000 0.155556 0.000000 0.188889 0.000000 0.222222 0.000000 0.255556 0.000000 0.288889 0.000000 0.322222 0.000000 0.355556 0.000000 0.388889 0.000000 0.422222 0.000000 0.455556 0.000000 0.488889 0.000000 0.522222 0.000000 0.555556 0.000000 0.588889 0.000000 0.622222 0.000000 0.655556 0.000000 0.688889 0.000000 0.722222 0.000000 0.755556 0.000000 0.788889 0.000000 0.822222 0.000000 0.855556 0.000000 0.888889 0.000000 0.922222 0.000000 0.955556 0.000000 0.988889 0.000000 1.022222 0.000000 1.055556 0.000000 1.088889 0.000000 1.122222 0.000000 1.155556 0.000000 1.188889 0.000000 1.222222 0.000000 1.255556 0.000000 1.288889 0.000000 1.322222 0.000000 1.355556 0.000000 1.388889 0.000000 1.422222 0.000000 1.455556 0.000000 1.488889 0.000000 1.522222 0.000000 1.555556 0.000000 1.588889 0.000000 1.622222 0.000000 1.655556 0.000000 1.688889 0.000000 1.722222 0.000000 1.755556 0.000000 1.788889 0.000000 1.822222 0.000000 1.855556 0.000000 1.888889 0.000000 1.922222 0.000000 1.955556 0.000000 1.988889 0.000000 2.022222 0.000000 2.055556 0.000000 2.088889 0.000000 2.122222 0.000000 2.155556 0.000000 2.188889 0.000000 2.222222 0.000000 2.255556 0.000000 2.288889 0.000000 2.322222 0.000000 2.355556 0.000000 2.388889 0.000000 2.422222 0.000000 2.455556 0.000000 2.488889 0.000000 2.522222 0.000000 2.555556 0.000000 2.588889 0.000000 2.622222 0.000000 2.655556 0.000000 2.688889 0.000000 2.722222 0.000000 2.755556 0.000000 2.788889 0.000000 2.822222 0.000000 2.855556 0.000000 2.888889 0.000000 2.922222 0.000000 2.955556 0.000000 2.988889 0.000000 3.022222 0.000000 3.055556 0.000000 3.088889 0.000000 3.122222 0.000000 3.155556 0.000000 3.188889 0.000000 3.222222 0.000000 3.255556 0.000000 3.288889 0.000000 3.322222 0.000000</float_array>
				<technique_common>
					<accessor source="#Plane001-rotateZ.ANGLE-intan-array" count="101" stride="2">
						<param type="float"/>
						<param type="float"/>
					</accessor>
				</technique_common>
			</source>
			<source id="Plane001-rotateZ.ANGLE-outtan">
				<float_array id="Plane001-rotateZ.ANGLE-outtan-array" count="202">0.011111 0.000000 0.044444 0.000000 0.077778 0.000000 0.111111 0.000000 0.144444 0.000000 0.177778 0.000000 0.211111 0.000000 0.244444 0.000000 0.277778 0.000000 0.311111 0.000000 0.344444 0.000000 0.377778 0.000000 0.411111 0.000000 0.444444 0.000000 0.477778 0.000000 0.511111 0.000000 0.544444 0.000000 0.577778 0.000000 0.611111 0.000000 0.644444 0.000000 0.677778 0.000000 0.711111 0.000000 0.744444 0.000000 0.777778 0.000000 0.811111 0.000000 0.844444 0.000000 0.877778 0.000000 0.911111 0.000000 0.944444 0.000000 0.977778 0.000000 1.011111 0.000000 1.044444 0.000000 1.077778 0.000000 1.111111 0.000000 1.144444 0.000000 1.177778 0.000000 1.211111 0.000000 1.244444 0.000000 1.277778 0.000000 1.311111 0.000000 1.344444 0.000000 1.377778 0.000000 1.411111 0.000000 1.444444 0.000000 1.477778 0.000000 1.511111 0.000000 1.544444 0.000000 1.577778 0.000000 1.611111 0.000000 1.644444 0.000000 1.677778 0.000000 1.711111 0.000000 1.744444 0.000000 1.777778 0.000000 1.811111 0.000000 1.844444 0.000000 1.877778 0.000000 1.911111 0.000000 1.944444 0.000000 1.977778 0.000000 2.011111 0.000000 2.044444 0.000000 2.077778 0.000000 2.111111 0.000000 2.144444 0.000000 2.177778 0.000000 2.211111 0.000000 2.244444 0.000000 2.277778 0.000000 2.311111 0.000000 2.344444 0.000000 2.377778 0.000000 2.411111 0.000000 2.444444 0.000000 2.477778 0.000000 2.511111 0.000000 2.544444 0.000000 2.577778 0.000000 2.611111 0.000000 2.644444 0.000000 2.677778 0.000000 2.711111 0.000000 2.744444 0.000000 2.777778 0.000000 2.811111 0.000000 2.844444 0.000000 2.877778 0.000000 2.911111 0.000000 2.944444 0.000000 2.977778 0.000000 3.011111 0.000000 3.044444 0.000000 3.077778 0.000000 3.111111 0.000000 3.144444 0.000000 3.177778 0.000000 3.211111 0.000000 3.244444 0.000000 3.277778 0.000000 3.311111 0.000000 0.000000 0.000000</float_array>
				<technique_common>
					<accessor source="#Plane001-rotateZ.ANGLE-outtan-array" count="101" stride="2">
						<param type="float"/>
						<param type="float"/>
					</accessor>
				</technique_common>
			</source>
			<sampler id="Plane001-rotateZ.ANGLE">
				<input semantic="INPUT" source="#Plane001-rotateZ.ANGLE-input"/>
				<input semantic="OUTPUT" source="#Plane001-rotateZ.ANGLE-output"/>
				<input semantic="INTERPOLATION" source="#Plane001-rotateZ.ANGLE-interpolation"/>
				<input semantic="IN_TANGENT" source="#Plane001-rotateZ.ANGLE-intan"/>
				<input semantic="OUT_TANGENT" source="#Plane001-rotateZ.ANGLE-outtan"/>
			</sampler>
			<channel source="#Plane001-rotateZ.ANGLE" target="Plane001/rotateZ.ANGLE"/>
		</animation>
	</library_animations>
	<library_visual_scenes>
		<visual_scene id="Plane_Skin" name="Plane_Skin">
			<node name="Bone001" id="Bone001" sid="Bone001" type="JOINT">
				<rotate sid="jointOrientX">1 0 0 -90.000000</rotate>
				<rotate sid="rotateZ">0 0 1 0.000000</rotate>
				<rotate sid="rotateY">0 1 0 -0.000000</rotate>
				<rotate sid="rotateX">1 0 0 0.000007</rotate>
				<extra>
					<technique profile="FCOLLADA">
						<visibility>1.000000</visibility>
					</technique>
				</extra>
				<node name="Bone002" id="Bone002" sid="Bone002" type="JOINT">
					<translate sid="translate">-0.000000 0.000000 2.000000</translate>
					<rotate sid="rotateZ">0 0 1 0.000009</rotate>
					<rotate sid="rotateY">0 1 0 0.000005</rotate>
					<rotate sid="rotateX">1 0 0 0.000019</rotate>
					<extra>
						<technique profile="FCOLLADA">
							<visibility>1.000000</visibility>
						</technique>
					</extra>
				</node>
			</node>
			<node name="Plane001" id="Plane001" sid="Plane001">
				<instance_controller url="#Plane001Controller"/>
				<extra>
					<technique profile="FCOLLADA">
						<visibility>1.000000</visibility>
					</technique>
				</extra>
			</node>
			<extra>
				<technique profile="MAX3D">
					<frame_rate>30.000000</frame_rate>
				</technique>
				<technique profile="FCOLLADA">
					<start_time>0.000000</start_time>
					<end_time>3.333333</end_time>
				</technique>
			</extra>
		</visual_scene>
	</library_visual_scenes>
	<scene>
		<instance_visual_scene url="#Plane_Skin"/>
	</scene>
</COLLADA>
